authors,bbox,created,creators,currentVersion,description,extent,id,locationPrecision,maxDate,minDate,modified,nameAttested,nameLanguage,nameTransliterated,path,pid,latitude,reprLatLong,longitude,tags,timePeriods,timePeriodsKeys,timePeriodsRange,title,uid
"Spann, P., R. Warner, R. Talbert, T. Elliott, S. Gillies","-3.362253, 38.640276, -3.362253, 38.640276",2010-09-24T19:02:34Z,P.O. Spann,,,"{""type"": ""Point"", ""coordinates"": [-3.362253, 38.640276]}",edeba,precise,300,-30,2012-02-14T22:51:02Z,,,Edeba,/places/265886/edeba,/places/265886,38.640276,"38.640276,-3.362253",-3.362253,,R,roman,"-30.0,300.0",Edeba,5d9ef3ad9f9b7b799f04b63adabbd69a
"Spann, P., R. Warner, R. Talbert, T. Elliott, S. Gillies","-0.594758, 39.624587, -0.594758, 39.624587",2010-09-24T19:02:35Z,P.O. Spann,0,,"{""type"": ""Point"", ""coordinates"": [-0.594758, 39.624587]}",edeta,precise,300,-550,2018-06-08T00:03:24Z,,,Edeta,/places/265887/edeta,/places/265887,39.624587,"39.624587,-0.594758",-0.594758,,CHR,"classical,hellenistic-republican,roman","-550.0,300.0",Edeta,b40db6b772a6c281694819b63f8a34d0
"Spann, P., R. Warner, R. Talbert, T. Elliott, S. Gillies","-0.594758, 39.624587, -0.594758, 39.624587",2010-09-24T19:02:35Z,P.O. Spann,0,,"{""type"": ""Point"", ""coordinates"": [-0.594758, 39.624587]}",leiria,precise,-30,-550,2018-06-08T00:03:24Z,,,Leiria,/places/265887/leiria,/places/265887,39.624587,"39.624587,-0.594758",-0.594758,,CH,"classical,hellenistic-republican","-550.0,-30.0",Leiria,272e774606d3699546e66154d55621a4
"Spann, P., R. Warner, R. Talbert, S. Gillies, T. Elliott, J. Becker","-1.0, 39.0, 0.0, 40.0",2010-09-24T19:02:39Z,P.O. Spann,0,,"{""type"": ""Polygon"", ""coordinates"": [[[-1.0, 39.0], [-1.0, 40.0], [0.0, 40.0], [0.0, 39.0], [-1.0, 39.0]]]}",edetania,rough,300,-330,2016-02-08T23:50:20Z,regio Edetania,la,Edetania,/places/265888/edetania,/places/265888,39.5,"39.5,-0.5",-0.5,,HR,"hellenistic-republican,roman","-330.0,300.0",Edetania,401ce70ed69bfe9c8e310b4f721298bc
"Spann, P., R. Warner, R. Talbert, T. Elliott, S. Gillies","-1.0, 39.0, 0.0, 40.0",2010-09-24T19:02:39Z,P.O. Spann,,,"{""type"": ""Polygon"", ""coordinates"": [[[-1.0, 39.0], [-1.0, 40.0], [0.0, 40.0], [0.0, 39.0], [-1.0, 39.0]]]}",edetani,rough,300,-330,2012-02-14T22:51:04Z,,,Edetani,/places/265888/edetani,/places/265888,39.5,"39.5,-0.5",-0.5,,HR,"hellenistic-republican,roman","-330.0,300.0",Edetani,6dd0d63600ba5eb7e45bc911e9c04e06
"Spann, P., R. Warner, R. Talbert, T. Elliott, S. Gillies","-1.0, 39.0, 0.0, 40.0",2010-09-24T19:02:39Z,P.O. Spann,,,"{""type"": ""Polygon"", ""coordinates"": [[[-1.0, 39.0], [-1.0, 40.0], [0.0, 40.0], [0.0, 39.0], [-1.0, 39.0]]]}",sedetani,rough,300,-330,2012-02-14T22:51:04Z,,,Sedetani,/places/265888/sedetani,/places/265888,39.5,"39.5,-0.5",-0.5,,HR,"hellenistic-republican,roman","-330.0,300.0",Sedetani,f6391a26bdf6e9aaacfc5f30bc0476c0
"Spann, P., R. Warner, R. Talbert, T. Elliott, S. Gillies","-1.698809, 37.671353, -1.698809, 37.671353",2010-09-24T19:02:42Z,P.O. Spann,,,"{""type"": ""Point"", ""coordinates"": [-1.698809, 37.671353]}",eliocroca,precise,640,-330,2012-02-14T22:51:06Z,,,Eliocroca,/places/265891/eliocroca,/places/265891,37.671353,"37.671353,-1.698809",-1.698809,,HRL,"hellenistic-republican,roman,late-antique","-330.0,640.0",Eliocroca,f0714518730ac4082a8a3849bf0c1d2e
"Spann, P., R. Warner, R. Talbert, T. Elliott, S. Gillies","-4.381896, 38.026033, -4.381896, 38.026033",2010-09-24T19:02:44Z,P.O. Spann,,,"{""type"": ""Point"", ""coordinates"": [-4.381896, 38.026033]}",epora,precise,640,-330,2012-02-14T22:51:07Z,,,Epora,/places/265893/epora,/places/265893,38.026033,"38.026033,-4.381896",-4.381896,,HRL,"hellenistic-republican,roman,late-antique","-330.0,640.0",Epora,ff461309e967966cd53f4dd5c37df8c9
"Spann, P., R. Warner, R. Talbert, T. Elliott, S. Gillies","-4.381896, 38.026033, -4.381896, 38.026033",2010-09-24T19:02:44Z,P.O. Spann,,,"{""type"": ""Point"", ""coordinates"": [-4.381896, 38.026033]}",epora-foederatorum,precise,640,-330,2012-02-14T22:51:07Z,,,Epora Foederatorum,/places/265893/epora-foederatorum,/places/265893,38.026033,"38.026033,-4.381896",-4.381896,,HRL,"hellenistic-republican,roman,late-antique","-330.0,640.0",Epora Foederatorum,56a32d29725f7847048599d3f023b990
"Spann, P., R. Warner, R. Talbert, T. Elliott, S. Gillies","0.133339, 40.093581, 0.133339, 40.093581",2010-09-24T19:02:46Z,P.O. Spann,0,,"{""type"": ""Point"", ""coordinates"": [0.133339, 40.093581]}",etobesa,precise,300,-330,2016-12-15T18:15:54Z,,,Etobesa,/places/265894/etobesa,/places/265894,40.093581,"40.093581,0.133339",0.133339,,HR,"hellenistic-republican,roman","-330.0,300.0",Etobesa,990942dac3edb6f9bde02c469b124cf9
"Spann, P., R. Warner, R. Talbert, T. Elliott, S. Gillies","0.133339, 40.093581, 0.133339, 40.093581",2010-09-24T19:02:46Z,P.O. Spann,1,,"{""type"": ""Point"", ""coordinates"": [0.133339, 40.093581]}",etouissa,precise,300,-330,2016-12-15T18:15:55Z,,,Etouissa,/places/265894/etouissa,/places/265894,40.093581,"40.093581,0.133339",0.133339,,HR,"hellenistic-republican,roman","-330.0,300.0",Etouissa,009290844daae77607a40bf2cd3548b9
"Elliott, T.",,2017-04-20T21:01:33Z,thomase,0,,,villa-del-faro,unlocated,2100,1700,2017-04-20T21:01:46Z,Villa del Faro,es,Villa del Faro,/places/265896/villa-del-faro,/places/265896,,,,,M,modern,"1700.0,2100.0",Villa del Faro,10690299f6434a1f8a5f0c56c4cbe0a9
"Spann, P., R. Warner, R. Talbert, T. Elliott, S. Gillies","0.0, 38.0, 1.0, 39.0",2010-09-24T19:02:49Z,P.O. Spann,,,"{""type"": ""Polygon"", ""coordinates"": [[[0.0, 38.0], [0.0, 39.0], [1.0, 39.0], [1.0, 38.0], [0.0, 38.0]]]}",ferrarium,rough,300,-30,2012-02-14T22:51:10Z,,,Ferrarium,/places/265897/ferrarium,/places/265897,38.5,"38.5,0.5",0.5,,R,roman,"-30.0,300.0",Ferrarium,fbc8d7598702a993e418eb0ed497ca2f
"Spann, P., R. Warner, R. Talbert, S. Gillies, T. Elliott",,2010-09-24T19:02:49Z,P.O. Spann,1,,,Tenebrium,unlocated,300,-30,2017-04-20T21:26:13Z,,akk,Tenebrium,/places/265897/Tenebrium,/places/265897,,,,,R,roman,"-30.0,300.0",Tenebrium,603a3e269fe4aee274c0efe7f855af12
"Spann, P., R. Warner, R. Talbert, T. Elliott, S. Gillies","-1.313677, 37.599034, -1.313677, 37.599034",2010-09-24T19:02:51Z,P.O. Spann,,,"{""type"": ""Point"", ""coordinates"": [-1.313677, 37.599034]}",ficariensis-locus,precise,300,-30,2012-02-14T22:51:11Z,,,Ficariensis Locus,/places/265898/ficariensis-locus,/places/265898,37.599034,"37.599034,-1.313677",-1.313677,,R,roman,"-30.0,300.0",Ficariensis Locus,9cd6504b2bb6ebc3f3ac15bfeccbc11d
"Spann, P., R. Warner, R. Talbert, T. Elliott, S. Gillies","-1.143263, 38.208848, -1.143263, 38.208848",2010-09-24T19:02:53Z,P.O. Spann,,,"{""type"": ""Point"", ""coordinates"": [-1.143263, 38.208848]}",fortuna,precise,300,-330,2012-02-14T22:51:12Z,,,Fortuna,/places/265899/fortuna,/places/265899,38.208848,"38.208848,-1.143263",-1.143263,,HR,"hellenistic-republican,roman","-330.0,300.0",Fortuna,208dc02b4ebb61e8bb96b35c0ce02994
"Spann, P., R. Warner, R. Talbert, T. Elliott, S. Gillies","-3.047757, 37.727146, -3.047757, 37.727146",2010-09-24T19:02:55Z,P.O. Spann,,,"{""type"": ""Point"", ""coordinates"": [-3.047757, 37.727146]}",fraxinum,precise,640,-30,2012-02-14T22:51:13Z,,,Fraxinum,/places/265900/fraxinum,/places/265900,37.727146,"37.727146,-3.047757",-3.047757,,RL,"roman,late-antique","-30.0,640.0",Fraxinum,194b4fccf4e5b944640b6570bede887c
"Spann, P., R. Warner, R. Talbert, S. Gillies, T. Elliott, J. Becker","3.050936, 39.339079, 3.050936, 39.339079",2010-09-24T19:03:02Z,P.O. Spann,1,,"{""type"": ""Point"", ""coordinates"": [3.050936, 39.339079]}",guium,precise,300,-30,2019-01-17T14:16:08Z,,la,Guium,/places/265906/guium,/places/265906,39.339079,"39.339079,3.050936",3.050936,,R,roman,"-30.0,300.0",Guium,5bb37dd33decbe898e137302f29d2b88
"Spann, P., R. Warner, R. Talbert, T. Elliott, S. Gillies","3.050936, 39.339079, 3.050936, 39.339079",2010-09-24T19:03:02Z,P.O. Spann,,,"{""type"": ""Point"", ""coordinates"": [3.050936, 39.339079]}",cinium,precise,300,-30,2012-02-14T22:51:16Z,,,Cinium,/places/265906/cinium,/places/265906,39.339079,"39.339079,3.050936",3.050936,,R,roman,"-30.0,300.0",Cinium,3b6a17d070639aede982e28660439d67
"Spann, P., R. Warner, R. Talbert, T. Elliott, S. Gillies","3.839243, 40.002343, 3.839243, 40.002343",2010-09-24T19:03:05Z,P.O. Spann,,,"{""type"": ""Point"", ""coordinates"": [3.839243, 40.002343]}",iamo,precise,640,-330,2012-02-14T22:51:19Z,,,Iamo,/places/265916/iamo,/places/265916,40.002343,"40.002343,3.839243",3.839243,,HRL,"hellenistic-republican,roman,late-antique","-330.0,640.0",Iamo,967ab4652b0563ea1befc307b4993be3
"Spann, P., R. Warner, R. Talbert, T. Elliott, S. Gillies","3.839243, 40.002343, 3.839243, 40.002343",2010-09-24T19:03:05Z,P.O. Spann,,,"{""type"": ""Point"", ""coordinates"": [3.839243, 40.002343]}",iamna,precise,640,-330,2012-02-14T22:51:19Z,,,Iamna,/places/265916/iamna,/places/265916,40.002343,"40.002343,3.839243",3.839243,,HRL,"hellenistic-republican,roman,late-antique","-330.0,640.0",Iamna,8d8f7d02679005a83dbb6651c4461337
"Spann, P., R. Warner, R. Talbert, T. Elliott, S. Gillies","-1.0, 38.0, 0.0, 39.0",2010-09-24T19:03:08Z,P.O. Spann,,,"{""type"": ""Polygon"", ""coordinates"": [[[-1.0, 38.0], [-1.0, 39.0], [0.0, 39.0], [0.0, 38.0], [-1.0, 38.0]]]}",iaspis,rough,640,-30,2012-02-14T22:51:20Z,,,Iaspis,/places/265917/iaspis,/places/265917,38.5,"38.5,-0.5",-0.5,,RL,"roman,late-antique","-30.0,640.0",Iaspis,534dd922c6c62e4205e3616bf3bda1d0
"Spann, P., R. Warner, R. Talbert, T. Elliott, S. Gillies","-1.0, 38.0, 0.0, 39.0",2010-09-24T19:03:08Z,P.O. Spann,,,"{""type"": ""Polygon"", ""coordinates"": [[[-1.0, 38.0], [-1.0, 39.0], [0.0, 39.0], [0.0, 38.0], [-1.0, 38.0]]]}",aspis,rough,640,-30,2012-02-14T22:51:20Z,,,Aspis,/places/265917/aspis,/places/265917,38.5,"38.5,-0.5",-0.5,,RL,"roman,late-antique","-30.0,640.0",Aspis,b9b384db5c5662b6721668212f74d8db
"Spann, P., R. Warner, R. Talbert, T. Elliott, S. Gillies","-4.425943, 37.474155, -4.425943, 37.474155",2010-09-24T19:03:10Z,P.O. Spann,0,,"{""type"": ""Point"", ""coordinates"": [-4.425943, 37.474155]}",igabrum,precise,640,-30,2020-11-20T01:04:27Z,,,Igabrum,/places/265919/igabrum,/places/265919,37.474155,"37.474155,-4.425943",-4.425943,,RL,"roman,late-antique","-30.0,640.0",Igabrum,afad3a49b7c417232b1d7b5844ec4d27
"Spann, P., R. Warner, R. Talbert, T. Elliott, S. Gillies","-4.425943, 37.474155, -4.425943, 37.474155",2010-09-24T19:03:10Z,P.O. Spann,,,"{""type"": ""Point"", ""coordinates"": [-4.425943, 37.474155]}",egabrum,precise,640,300,2012-02-14T22:51:21Z,,,Egabrum,/places/265919/egabrum,/places/265919,37.474155,"37.474155,-4.425943",-4.425943,,L,late-antique,"300.0,640.0",Egabrum,eb04b365a4122279b28dbd6f0a629841
"Spann, P., R. Warner, R. Talbert, T. Elliott, S. Gillies",,2010-09-24T19:03:10Z,P.O. Spann,,,,municipium-iulium,unlocated,,,2012-02-14T22:51:21Z,,,Municipium Iulium,/places/265919/municipium-iulium,/places/265919,,,,,,,,Municipium Iulium,fd3d8fbf609e501e9ebd66b6b07f534b
"Jesús Redondo, M., J. Becker",,2016-11-10T11:17:59Z,mjredondo,2,Modern name of a Spanish village located in the southeast of the province of Córdoba that belonged to the kingdom of Alfonso X.,,name.2016-11-10.5008851897,unlocated,2100,640,2018-02-01T04:59:50Z,Cabra,es,Cabra,/places/265919/name.2016-11-10.5008851897,/places/265919,,,,,MM,"mediaeval-byzantine,modern","640.0,2100.0",Cabra,57391cf012e54a208d2349c19ea5a333
"Spann, P., R. Warner, R. Talbert, T. Elliott, S. Gillies","0.073556, 40.231686, 0.073556, 40.231686",2010-09-24T19:03:13Z,P.O. Spann,,,"{""type"": ""Point"", ""coordinates"": [0.073556, 40.231686]}",ildum,precise,640,-330,2012-02-14T22:51:22Z,,,Ildum,/places/265920/ildum,/places/265920,40.231686,"40.231686,0.073556",0.073556,,HRL,"hellenistic-republican,roman,late-antique","-330.0,640.0",Ildum,a86473b88b25cfeccd81f26485601801
"Spann, P., R. Warner, R. Talbert, S. Gillies, T. Elliott, J. Becker","-3.597934, 37.176484, -3.597934, 37.176484",2010-09-24T19:03:14Z,P.O. Spann,1,,"{""type"": ""Point"", ""coordinates"": [-3.597934, 37.176484]}",iliberri,precise,640,-330,2018-06-08T00:45:35Z,,la,Iliberri,/places/265921/iliberri,/places/265921,37.176484,"37.176484,-3.597934",-3.597934,,HRL,"hellenistic-republican,roman,late-antique","-330.0,640.0",Iliberri,8d61993bda22b95cd443582b5d0a15ad
"Spann, P., R. Warner, R. Talbert, T. Elliott, S. Gillies","-3.597934, 37.176484, -3.597934, 37.176484",2010-09-24T19:03:14Z,P.O. Spann,0,,"{""type"": ""Point"", ""coordinates"": [-3.597934, 37.176484]}",elvira,precise,640,300,2018-06-08T00:45:35Z,,,Elvira,/places/265921/elvira,/places/265921,37.176484,"37.176484,-3.597934",-3.597934,,L,late-antique,"300.0,640.0",Elvira,d028b5060458d5926348a41f2ce87b79
"Spann, P., R. Warner, R. Talbert, T. Elliott, S. Gillies",,2010-09-24T19:03:15Z,P.O. Spann,0,,,municipium-florentinum,unlocated,,,2018-06-08T00:45:35Z,,,Municipium Florentinum,/places/265921/municipium-florentinum,/places/265921,,,,,,,,Municipium Florentinum,294d3ab20962965c0ddf2f0c825dd067
"Jesús Redondo, M., J. Becker",,2016-11-22T18:51:01Z,mjredondo,2,Medieval and modern Spanish name.,,name.2016-11-22.6084486999,unlocated,2100,640,2018-06-08T00:45:35Z,Granada,es,Granada,/places/265921/name.2016-11-22.6084486999,/places/265921,,,,,MM,"mediaeval-byzantine,modern","640.0,2100.0",Granada,6f065eb6d5974ebe9303724607ea0eaf
"Martínez Jiménez, J.",,2013-07-25T10:29:36Z,jmartinez,2,,,name.2013-07-25.1503349599,unlocated,750,661,2019-01-06T16:22:57Z,,ar,Ilsh,/places/265922/name.2013-07-25.1503349599,/places/265922,,,,,U,ummayad,"661.0,750.0",Ilsh,4fc80416fe36327f62ecd641c787546f
"Spann, P., R. Warner, R. Talbert, T. Elliott, S. Gillies","-0.6953, 38.2396, -0.6953, 38.2396",2010-09-24T19:03:16Z,P.O. Spann,0,,"{""type"": ""Point"", ""coordinates"": [-0.6953, 38.2396]}",ilici,precise,640,-750,2019-01-06T16:21:10Z,,,Ilici,/places/265922/ilici,/places/265922,38.2396,"38.2396,-0.6953",-0.6953,,ACHRL,"archaic,classical,hellenistic-republican,roman,late-antique","-750.0,640.0",Ilici,7249998ca953da3b9527f633008d27a8
"Spann, P., R. Warner, R. Talbert, T. Elliott, S. Gillies","-0.6953, 38.2396, -0.6953, 38.2396",2010-09-24T19:03:17Z,P.O. Spann,0,,"{""type"": ""Point"", ""coordinates"": [-0.6953, 38.2396]}",helike,precise,640,300,2019-01-06T16:21:10Z,,,Helike,/places/265922/helike,/places/265922,38.2396,"38.2396,-0.6953",-0.6953,,L,late-antique,"300.0,640.0",Helike,8279457efdbae550db567886e74cc943
"Spann, P., R. Warner, R. Talbert, T. Elliott, S. Gillies",,2010-09-24T19:03:17Z,P.O. Spann,0,,,ecclesia-elotana,unlocated,,,2019-01-06T16:21:10Z,,,Ecclesia Elotana,/places/265922/ecclesia-elotana,/places/265922,,,,,,,,Ecclesia Elotana,595c9b37399de513659de3383104623b
"Åhlfeldt, J.",,2012-05-25T22:05:45Z,jahlfeldt,0,Modern Name,,elche,unlocated,2100,1700,2019-01-06T16:21:10Z,,,Elche,/places/265922/elche,/places/265922,,,,,M,modern,"1700.0,2100.0",Elche,2900e08ab62f27794fc4a218d55bbef0
"Spann, P., R. Warner, R. Talbert, T. Elliott, S. Gillies","-1.0, 38.0, 0.0, 39.0",2010-09-24T19:03:19Z,P.O. Spann,,,"{""type"": ""Polygon"", ""coordinates"": [[[-1.0, 38.0], [-1.0, 39.0], [0.0, 39.0], [0.0, 38.0], [-1.0, 38.0]]]}",ilicitanus-sinus,rough,300,-30,2012-02-14T22:51:27Z,,,Ilicitanus Sinus,/places/265923/ilicitanus-sinus,/places/265923,38.5,"38.5,-0.5",-0.5,,R,roman,"-30.0,300.0",Ilicitanus Sinus,25877d3c3c5d95a110585014aaaf8552
"Becker, J.","-0.45, 38.3, -0.45, 38.3",2020-09-27T15:05:47Z,jbecker,0,,"{""type"": ""Point"", ""coordinates"": [-0.45, 38.3]}",bahia-de-alicante,precise,2100,1700,2020-09-28T20:39:25Z,Bahía de Alicante,es,Bahia de Alicante,/places/265923/bahia-de-alicante,/places/265923,38.3,"38.3,-0.45",-0.45,,M,modern,"1700.0,2100.0",Bahia de Alicante,cc607619dd854e9ea7f6d68899253c68
"Spann, P., R. Warner, R. Talbert, T. Elliott, S. Gillies","-3.80883, 37.968343, -3.80883, 37.968343",2010-09-24T19:03:20Z,P.O. Spann,0,,"{""type"": ""Point"", ""coordinates"": [-3.80883, 37.968343]}",iliturgi,precise,640,-330,2018-06-07T23:43:42Z,,,Iliturgi,/places/265924/iliturgi,/places/265924,37.968343,"37.968343,-3.80883",-3.80883,,HRL,"hellenistic-republican,roman,late-antique","-330.0,640.0",Iliturgi,446cd2cad0684467f9bf4b3f886e9e2b
"Spann, P., R. Warner, R. Talbert, T. Elliott, S. Gillies","-3.80883, 37.968343, -3.80883, 37.968343",2010-09-24T19:03:21Z,P.O. Spann,1,,"{""type"": ""Point"", ""coordinates"": [-3.80883, 37.968343]}",forum-iulium,precise,640,-330,2018-06-07T23:43:42Z,,,Forum Iulium,/places/265924/forum-iulium,/places/265924,37.968343,"37.968343,-3.80883",-3.80883,,HRL,"hellenistic-republican,roman,late-antique","-330.0,640.0",Forum Iulium,c1145fa743cd5a0687bfd32caac8b5be
"Spann, P., R. Warner, R. Talbert, T. Elliott, S. Gillies","-4.148005, 37.511643, -4.148005, 37.511643",2010-09-24T19:03:22Z,P.O. Spann,,,"{""type"": ""Point"", ""coordinates"": [-4.148005, 37.511643]}",iliturgicola,precise,300,-30,2012-02-14T22:51:28Z,,,Iliturgicola,/places/265925/iliturgicola,/places/265925,37.511643,"37.511643,-4.148005",-4.148005,,R,roman,"-30.0,300.0",Iliturgicola,1a532bc2382f845205264d8831d80948
"Spann, P., R. Warner, R. Talbert, T. Elliott, S. Gillies","-0.614465, 38.184959, -0.614465, 38.184959",2010-09-24T19:03:26Z,P.O. Spann,,,"{""type"": ""Point"", ""coordinates"": [-0.614465, 38.184959]}",illikitanos-limen,precise,640,-30,2012-02-14T22:51:29Z,,,Illikitanos Limen,/places/265926/illikitanos-limen,/places/265926,38.184959,"38.184959,-0.614465",-0.614465,,RL,"roman,late-antique","-30.0,640.0",Illikitanos Limen,55e6b5c344a78a305f3a18e0ec00f1aa
"Spann, P., R. Warner, R. Talbert, T. Elliott, S. Gillies","-1.254941, 38.081834, -1.254941, 38.081834",2010-09-24T19:03:27Z,P.O. Spann,,,"{""type"": ""Point"", ""coordinates"": [-1.254941, 38.081834]}",ilorci,precise,640,-330,2012-02-14T22:51:30Z,,,Ilorci,/places/265927/ilorci,/places/265927,38.081834,"38.081834,-1.254941",-1.254941,,HRL,"hellenistic-republican,roman,late-antique","-330.0,640.0",Ilorci,68a5d188f96a2f56173b57a7d23c58b2
"Spann, P., R. Warner, R. Talbert, T. Elliott, S. Gillies","-1.254941, 38.081834, -1.254941, 38.081834",2010-09-24T19:03:28Z,P.O. Spann,,,"{""type"": ""Point"", ""coordinates"": [-1.254941, 38.081834]}",ilourgeia,precise,640,-330,2012-02-14T22:51:30Z,,,Ilourgeia,/places/265927/ilourgeia,/places/265927,38.081834,"38.081834,-1.254941",-1.254941,,HRL,"hellenistic-republican,roman,late-antique","-330.0,640.0",Ilourgeia,700e33279b43e55b3ffd250133b31fb3
"Spann, P., R. Warner, R. Talbert, T. Elliott, S. Gillies","-1.606091, 38.476254, -1.606091, 38.476254",2010-09-24T19:03:30Z,P.O. Spann,0,,"{""type"": ""Point"", ""coordinates"": [-1.606091, 38.476254]}",ilounon,precise,640,-550,2018-05-09T20:03:11Z,,,Ilounon,/places/265928/ilounon,/places/265928,38.476254,"38.476254,-1.606091",-1.606091,,CHRL,"classical,hellenistic-republican,roman,late-antique","-550.0,640.0",Ilounon,cc74af11c774e50a74562a5a14603911
"Spann, P., R. Warner, R. Talbert, T. Elliott, S. Gillies","-3.206444, 38.247458, -3.206444, 38.247458",2010-09-24T19:03:32Z,P.O. Spann,,,"{""type"": ""Point"", ""coordinates"": [-3.206444, 38.247458]}",ilugo,precise,300,-330,2012-02-14T22:51:32Z,,,Ilugo,/places/265929/ilugo,/places/265929,38.247458,"38.247458,-3.206444",-3.206444,,HR,"hellenistic-republican,roman","-330.0,300.0",Ilugo,947ba5310b8ab8b24f323736bb25ae6a
"Spann, P., R. Warner, R. Talbert, T. Elliott, S. Gillies","-3.767231, 37.267154, -3.767231, 37.267154",2010-09-24T19:03:33Z,P.O. Spann,0,,"{""type"": ""Point"", ""coordinates"": [-3.767231, 37.267154]}",ilurco,precise,300,-30,2018-06-08T10:54:25Z,,,Ilurco,/places/265930/ilurco,/places/265930,37.267154,"37.267154,-3.767231",-3.767231,,R,roman,"-30.0,300.0",Ilurco,3679b861542ca9ad708df44e6e2a4e6e
"Spann, P., R. Warner, R. Talbert, T. Elliott, S. Gillies","-4.273434, 37.443593, -4.273434, 37.443593",2010-09-24T19:03:36Z,P.O. Spann,,,"{""type"": ""Point"", ""coordinates"": [-4.273434, 37.443593]}",ipolcobulcola,precise,300,-30,2012-02-14T22:51:35Z,,,Ipolcobulcola,/places/265935/ipolcobulcola,/places/265935,37.443593,"37.443593,-4.273434",-4.273434,,R,roman,"-30.0,300.0",Ipolcobulcola,549c8d7c00246def3b28c001cdc8b226
"Spann, P., R. Warner, R. Talbert, T. Elliott, S. Gillies","-4.273434, 37.443593, -4.273434, 37.443593",2010-09-24T19:03:36Z,P.O. Spann,,,"{""type"": ""Point"", ""coordinates"": [-4.273434, 37.443593]}",municipium-polconensium,precise,300,-30,2012-02-14T22:51:35Z,,,Municipium Polconensium,/places/265935/municipium-polconensium,/places/265935,37.443593,"37.443593,-4.273434",-4.273434,,R,roman,"-30.0,300.0",Municipium Polconensium,9ea50c632782a7abf94419b641960188
"Spann, P., R. Warner, R. Talbert, T. Elliott, S. Gillies","-4.326706, 37.614678, -4.326706, 37.614678",2010-09-24T19:03:38Z,P.O. Spann,0,,"{""type"": ""Point"", ""coordinates"": [-4.326706, 37.614678]}",iponuba,precise,300,-30,2018-09-30T15:59:45Z,,,Iponuba,/places/265936/iponuba,/places/265936,37.614678,"37.614678,-4.326706",-4.326706,,R,roman,"-30.0,300.0",Iponuba,1486be8358874795c4e6247f0132463b
"Spann, P., R. Warner, R. Talbert, T. Elliott, S. Gillies","-4.326706, 37.614678, -4.326706, 37.614678",2010-09-24T19:03:38Z,P.O. Spann,1,,"{""type"": ""Point"", ""coordinates"": [-4.326706, 37.614678]}",hippo-nova,precise,300,-30,2018-09-30T15:59:46Z,,,Hippo Nova,/places/265936/hippo-nova,/places/265936,37.614678,"37.614678,-4.326706",-4.326706,,R,roman,"-30.0,300.0",Hippo Nova,793ed3ef87cc87cabb131179b7f535ac
"Spann, P., R. Warner, R. Talbert, T. Elliott, S. Gillies","-4.39041, 37.67242, -4.39041, 37.67242",2010-09-24T19:03:40Z,P.O. Spann,,,"{""type"": ""Point"", ""coordinates"": [-4.39041, 37.67242]}",ipsca,precise,300,-330,2012-02-14T22:51:36Z,,,Ipsca,/places/265937/ipsca,/places/265937,37.67242,"37.67242,-4.39041",-4.39041,,HR,"hellenistic-republican,roman","-330.0,300.0",Ipsca,c7a5117088fde2b1c3e35f4f97e9ec58
"Spann, P., R. Warner, R. Talbert, T. Elliott, S. Gillies","-4.39041, 37.67242, -4.39041, 37.67242",2010-09-24T19:03:40Z,P.O. Spann,,,"{""type"": ""Point"", ""coordinates"": [-4.39041, 37.67242]}",municipium-contributum-ipscense,precise,300,-330,2012-02-14T22:51:36Z,,,Municipium Contributum Ipscense,/places/265937/municipium-contributum-ipscense,/places/265937,37.67242,"37.67242,-4.39041",-4.39041,,HR,"hellenistic-republican,roman","-330.0,300.0",Municipium Contributum Ipscense,90138dfd2082d68b8ac0ee3a5da45c3b
"Spann, P., R. Warner, R. Talbert, T. Elliott, S. Gillies","-4.377602, 37.755932, -4.377602, 37.755932",2010-09-24T19:03:42Z,P.O. Spann,0,,"{""type"": ""Point"", ""coordinates"": [-4.377602, 37.755932]}",iptuci,precise,300,-330,2018-06-07T23:23:28Z,,,Iptuci,/places/265938/iptuci,/places/265938,37.755932,"37.755932,-4.377602",-4.377602,,HR,"hellenistic-republican,roman","-330.0,300.0",Iptuci,27de2d9e3247880f04d6fae5d19df0e3
"Spann, P., R. Warner, R. Talbert, T. Elliott, S. Gillies","-4.377602, 37.755932, -4.377602, 37.755932",2010-09-24T19:03:42Z,P.O. Spann,0,,"{""type"": ""Point"", ""coordinates"": [-4.377602, 37.755932]}",ituci,precise,300,-330,2018-06-07T23:23:28Z,,,Ituci,/places/265938/ituci,/places/265938,37.755932,"37.755932,-4.377602",-4.377602,,HR,"hellenistic-republican,roman","-330.0,300.0",Ituci,49f2182d60683b5c8deb135992efd48a
"Spann, P., R. Warner, R. Talbert, T. Elliott, S. Gillies",,2010-09-24T19:03:42Z,P.O. Spann,0,,,col-virtus-iulia,unlocated,,,2018-06-07T23:23:28Z,,,Col. Virtus Iulia,/places/265938/col-virtus-iulia,/places/265938,,,,,,,,Col. Virtus Iulia,209a92850873d7acca61c0487351f8a9
"Spann, P., R. Warner, R. Talbert, T. Elliott, S. Gillies","-4.061071, 38.026896, -3.983804, 38.033538",2010-09-24T19:03:44Z,P.O. Spann,,,"{""type"": ""Polygon"", ""coordinates"": [[[-4.061071, 38.026896], [-4.061071, 38.033538], [-3.983804, 38.033538], [-3.983804, 38.026896], [-4.061071, 38.026896]]]}",isturgi,precise,640,-30,2012-02-14T22:51:39Z,,,Isturgi,/places/265939/isturgi,/places/265939,38.030217,"38.030217,-4.0224375",-4.0224375,,RL,"roman,late-antique","-30.0,640.0",Isturgi,ddb66257be34548fed96389e1aa9a6ea
"Spann, P., R. Warner, R. Talbert, S. Gillies, T. Elliott, J. Becker","-4.061071, 38.026896, -3.983804, 38.033538",2010-09-24T19:03:45Z,P.O. Spann,2,,"{""type"": ""Polygon"", ""coordinates"": [[[-4.061071, 38.026896], [-4.061071, 38.033538], [-3.983804, 38.033538], [-3.983804, 38.026896], [-4.061071, 38.026896]]]}",municipium-triumphale,precise,640,-30,2019-03-27T23:30:04Z,,la,Municipium Triumphale,/places/265939/municipium-triumphale,/places/265939,38.030217,"38.030217,-4.0224375",-4.0224375,,RL,"roman,late-antique","-30.0,640.0",Municipium Triumphale,050850d6eea7ca0047cb9ad952f73cf0
"Spann, P., R. Warner, R. Talbert, T. Elliott, S. Gillies","-3.053453, 38.899451, -3.053453, 38.899451",2010-09-24T19:03:50Z,P.O. Spann,,,"{""type"": ""Point"", ""coordinates"": [-3.053453, 38.899451]}",laminium,precise,640,-330,2012-02-14T22:51:42Z,,,Laminium,/places/265946/laminium,/places/265946,38.899451,"38.899451,-3.053453",-3.053453,,HRL,"hellenistic-republican,roman,late-antique","-330.0,640.0",Laminium,88ba673fb410a3657f82a42c312f03b2
"Spann, P., R. Warner, R. Talbert, T. Elliott, S. Gillies","-2.353783, 38.94902, -2.353783, 38.94902",2010-09-24T19:03:53Z,P.O. Spann,0,,"{""type"": ""Point"", ""coordinates"": [-2.353783, 38.94902]}",libisosa,precise,640,-330,2019-05-03T23:50:03Z,,,Libisosa,/places/265949/libisosa,/places/265949,38.94902,"38.94902,-2.353783",-2.353783,,HRL,"hellenistic-republican,roman,late-antique","-330.0,640.0",Libisosa,6ec7760f5077dc7852501baac1dc191e
"Spann, P., R. Warner, R. Talbert, T. Elliott, S. Gillies","-2.353783, 38.94902, -2.353783, 38.94902",2010-09-24T19:03:53Z,P.O. Spann,1,,"{""type"": ""Point"", ""coordinates"": [-2.353783, 38.94902]}",colonia-forum-augustum,precise,640,-330,2019-05-03T23:50:04Z,,,Colonia Forum Augustum,/places/265949/colonia-forum-augustum,/places/265949,38.94902,"38.94902,-2.353783",-2.353783,,HRL,"hellenistic-republican,roman,late-antique","-330.0,640.0",Colonia Forum Augustum,73743379eb233aa17ccb94f3030d5219
"Spann, P., R. Warner, R. Talbert, T. Elliott, S. Gillies","-2.0, 40.0, -1.0, 41.0",2010-09-24T19:03:56Z,P.O. Spann,1,,"{""type"": ""Polygon"", ""coordinates"": [[[-2.0, 40.0], [-2.0, 41.0], [-1.0, 41.0], [-1.0, 40.0], [-2.0, 40.0]]]}",lobetanoi,rough,300,-30,2021-02-25T22:58:03Z,,,Lobetanoi,/places/265951/lobetanoi,/places/265951,40.5,"40.5,-1.5",-1.5,,R,roman,"-30.0,300.0",Lobetanoi,443409bf8e25c7839c75ba5dc1b51665
"Spann, P., R. Warner, R. Talbert, T. Elliott, S. Gillies","-1.581155, 37.403784, -1.581155, 37.403784",2010-09-24T19:03:58Z,P.O. Spann,,,"{""type"": ""Point"", ""coordinates"": [-1.581155, 37.403784]}",longuntica,precise,-30,-330,2012-02-14T22:51:46Z,,,Longuntica,/places/265952/longuntica,/places/265952,37.403784,"37.403784,-1.581155",-1.581155,,H,hellenistic-republican,"-330.0,-30.0",Longuntica,6fefe7ba9e9090a4c02f854f46f62361
"Spann, P., R. Warner, R. Talbert, S. Gillies, T. Elliott, J. Becker","-0.484794, 38.346018, -0.484794, 38.346018",2010-09-24T19:04:00Z,P.O. Spann,1,,"{""type"": ""Point"", ""coordinates"": [-0.484794, 38.346018]}",lucentum,precise,640,-330,2019-01-06T16:45:37Z,Lucentum,la,Lucentum,/places/265954/lucentum,/places/265954,38.346018,"38.346018,-0.484794",-0.484794,,HRL,"hellenistic-republican,roman,late-antique","-330.0,640.0",Lucentum,12326aaacccbf78db77d57fb9731b01d
"Spann, P., R. Warner, R. Talbert, S. Gillies, T. Elliott, J. Becker","-0.484794, 38.346018, -0.484794, 38.346018",2010-09-24T19:04:00Z,P.O. Spann,2,,"{""type"": ""Point"", ""coordinates"": [-0.484794, 38.346018]}",akra-leuke,precise,640,-330,2019-01-06T16:45:37Z,Ἄκρα Λευκὴ,grc,Akra Leuke,/places/265954/akra-leuke,/places/265954,38.346018,"38.346018,-0.484794",-0.484794,,HRL,"hellenistic-republican,roman,late-antique","-330.0,640.0",Akra Leuke,807e6a19265c3cd1cbe8d1d0833a4cb4
"Spann, P., R. Warner, R. Talbert, T. Elliott, S. Gillies","-0.484794, 38.346018, -0.484794, 38.346018",2010-09-24T19:04:01Z,P.O. Spann,1,,"{""type"": ""Point"", ""coordinates"": [-0.484794, 38.346018]}",castrum-album,precise,640,-330,2019-01-06T16:45:38Z,,,Castrum Album,/places/265954/castrum-album,/places/265954,38.346018,"38.346018,-0.484794",-0.484794,,HRL,"hellenistic-republican,roman,late-antique","-330.0,640.0",Castrum Album,4868551051f2738e9addb99984281e75
"Spann, P., R. Warner, R. Talbert, T. Elliott, S. Gillies",,2010-09-24T19:04:06Z,P.O. Spann,0,,,maenuba,unlocated,300,-30,2017-10-27T20:21:14Z,,,Maenuba,/places/265958/maenuba,/places/265958,,,,,R,roman,"-30.0,300.0",Maenuba,42b574e13ab148258734cd91cb5c30ea
"Spann, P., R. Warner, R. Talbert, T. Elliott, S. Gillies",,2010-09-24T19:04:06Z,P.O. Spann,1,,,mainake,unlocated,300,-30,2017-10-27T20:21:14Z,,,Mainake,/places/265958/mainake,/places/265958,,,,,R,roman,"-30.0,300.0",Mainake,af51e0986069ff4b167ba8034bc734ae
"Spann, P., R. Warner, R. Talbert, T. Elliott, S. Gillies","-4.100678, 36.77864, -4.100678, 36.77864",2010-09-24T19:04:08Z,P.O. Spann,,,"{""type"": ""Point"", ""coordinates"": [-4.100678, 36.77864]}",maenuba,precise,640,-550,2012-02-14T22:51:50Z,,,Maenuba,/places/265959/maenuba,/places/265959,36.77864,"36.77864,-4.100678",-4.100678,,CHRL,"classical,hellenistic-republican,roman,late-antique","-550.0,640.0",Maenuba,677e3f6eb5456e2a3723c8ffcab38eb4
"Spann, P., R. Warner, R. Talbert, T. Elliott, S. Gillies","-4.100678, 36.77864, -4.100678, 36.77864",2010-09-24T19:04:08Z,P.O. Spann,,,"{""type"": ""Point"", ""coordinates"": [-4.100678, 36.77864]}",menova,precise,640,-30,2012-02-14T22:51:50Z,,,Menova,/places/265959/menova,/places/265959,36.77864,"36.77864,-4.100678",-4.100678,,RL,"roman,late-antique","-30.0,640.0",Menova,ef1cba3ad18a00f0a7a93ce91556e245
"Spann, P., R. Warner, R. Talbert, T. Elliott, S. Gillies",,2010-09-24T19:04:08Z,P.O. Spann,,,,maenoba,unlocated,,,2012-02-14T22:51:50Z,,,Maenoba,/places/265959/maenoba,/places/265959,,,,,,,,Maenoba,3d5730d0a13bdf3a6fec0cc6a221ba60
"Spann, P., R. Warner, R. Talbert, T. Elliott, S. Gillies","4.264116, 39.889482, 4.264116, 39.889482",2010-09-24T19:04:10Z,P.O. Spann,,,"{""type"": ""Point"", ""coordinates"": [4.264116, 39.889482]}",mago,precise,640,-330,2012-02-14T22:51:52Z,,,Mago,/places/265960/mago,/places/265960,39.889482,"39.889482,4.264116",4.264116,,HRL,"hellenistic-republican,roman,late-antique","-330.0,640.0",Mago,59ff8871f989d230c31f3524356e13e9
"Spann, P., R. Warner, R. Talbert, S. Gillies, T. Elliott, J. Becker","-4.094288, 36.741931, -4.094288, 36.741931",2010-09-24T19:04:13Z,P.O. Spann,1,,"{""type"": ""Point"", ""coordinates"": [-4.094288, 36.741931]}",mainake,precise,-30,-750,2020-09-14T21:54:52Z,Μαινάκῃ,grc,Mainake,/places/265961/mainake,/places/265961,36.741931,"36.741931,-4.094288",-4.094288,,ACH,"archaic,classical,hellenistic-republican","-750.0,-30.0",Mainake,7b1d9038532db51c435b39831ff4954c
"Spann, P., R. Warner, R. Talbert, S. Gillies, T. Elliott, J. Becker","-4.420163, 36.719658, -4.420163, 36.719658",2010-09-24T19:04:15Z,P.O. Spann,1,,"{""type"": ""Point"", ""coordinates"": [-4.420163, 36.719658]}",malaca,precise,640,-750,2018-06-07T23:23:11Z,,la,Malaca,/places/265963/malaca,/places/265963,36.719658,"36.719658,-4.420163",-4.420163,,ACHRL,"archaic,classical,hellenistic-republican,roman,late-antique","-750.0,640.0",Malaca,430e95300c00a26901c6419b623221f3
"Becker, J.",,2014-06-01T01:37:15Z,jbecker,0,,,malaga,unlocated,2100,1700,2020-12-13T12:08:48Z,Málaga,es,Malaga,/places/265963/malaga,/places/265963,,,,,M,modern,"1700.0,2100.0",Malaga,1aa7a4fbb26b6f176f909ad0aea9c814
"Becker, J.","-4.420163, 36.719658, -4.420163, 36.719658",2016-10-13T01:36:54Z,jbecker,2,,"{""type"": ""Point"", ""coordinates"": [-4.420163, 36.719658]}",name.2016-10-12.5880454626,precise,300,-30,2020-12-13T12:09:00Z,,la,municipium Flavium Malacitanum,/places/265963/name.2016-10-12.5880454626,/places/265963,36.719658,"36.719658,-4.420163",-4.420163,,R,roman,"-30.0,300.0",municipium Flavium Malacitanum,2511595ab72743d79094ce4936482383
"Spann, P., R. Warner, R. Talbert, T. Elliott, S. Gillies","-5.0, 36.0, -4.0, 37.0",2010-09-24T19:04:16Z,P.O. Spann,0,,"{""type"": ""Polygon"", ""coordinates"": [[[-5.0, 36.0], [-5.0, 37.0], [-4.0, 37.0], [-4.0, 36.0], [-5.0, 36.0]]]}",malaca,rough,300,-30,2017-10-27T20:21:17Z,,,Malaca,/places/265964/malaca,/places/265964,36.5,"36.5,-4.5",-4.5,,R,roman,"-30.0,300.0",Malaca,51d270ffcc7080e1e254b5deeecdc87b
"Spann, P., R. Warner, R. Talbert, T. Elliott, S. Gillies","-2.92748, 38.547361, -2.92748, 38.547361",2010-09-24T19:04:18Z,P.O. Spann,0,,"{""type"": ""Point"", ""coordinates"": [-2.92748, 38.547361]}",mariana,precise,640,-30,2018-06-08T00:03:18Z,,,Mariana,/places/265965/mariana,/places/265965,38.547361,"38.547361,-2.92748",-2.92748,,RL,"roman,late-antique","-30.0,640.0",Mariana,d48238be1fdb54f366289257e13b9973
"Spann, P., R. Warner, R. Talbert, T. Elliott, S. Gillies","-5.0, 38.0, -4.0, 39.0",2010-09-24T19:04:20Z,P.O. Spann,1,,"{""type"": ""Polygon"", ""coordinates"": [[[-5.0, 38.0], [-5.0, 39.0], [-4.0, 39.0], [-4.0, 38.0], [-5.0, 38.0]]]}",Marianus-M,rough,300,-330,2021-03-01T22:40:30Z,Marianus,la,Marianus,/places/265966/Marianus-M,/places/265966,38.5,"38.5,-4.5",-4.5,,HR,"hellenistic-republican,roman","-330.0,300.0",Marianus,316c1441ca07dce88a0d5406220d3c63
"Spann, P., R. Warner, R. Talbert, T. Elliott, S. Gillies","-4.602629, 37.595765, -4.602629, 37.595765",2010-09-24T19:04:22Z,P.O. Spann,,,"{""type"": ""Point"", ""coordinates"": [-4.602629, 37.595765]}",marruca,precise,300,-30,2012-02-14T22:51:57Z,,,Marruca,/places/265967/marruca,/places/265967,37.595765,"37.595765,-4.602629",-4.602629,,R,roman,"-30.0,300.0",Marruca,3d906ce00ad97883578c371f07dd531a
"Spann, P., R. Warner, R. Talbert, T. Elliott, S. Gillies","-2.694845, 38.692191, -2.694845, 38.692191",2010-09-24T19:04:24Z,P.O. Spann,,,"{""type"": ""Point"", ""coordinates"": [-2.694845, 38.692191]}",mentesa,precise,300,-330,2012-02-14T22:51:58Z,,,Mentesa,/places/265969/mentesa,/places/265969,38.692191,"38.692191,-2.694845",-2.694845,,HR,"hellenistic-republican,roman","-330.0,300.0",Mentesa,b8a8fbd0a6eca44877a938d67e6bdf05
"Spann, P., R. Warner, R. Talbert, T. Elliott, S. Gillies","-3.692715, 37.741633, -3.692715, 37.741633",2010-09-24T19:04:25Z,P.O. Spann,,,"{""type"": ""Point"", ""coordinates"": [-3.692715, 37.741633]}",mentesa-bastia,precise,640,-330,2012-02-14T22:51:59Z,,,Mentesa Bastia,/places/265970/mentesa-bastia,/places/265970,37.741633,"37.741633,-3.692715",-3.692715,,HRL,"hellenistic-republican,roman,late-antique","-330.0,640.0",Mentesa Bastia,4528c97ea7777542e2413e8470181246
"Jesús Redondo, M., J. Becker",,2016-11-21T21:18:44Z,mjredondo,3,Medieval Spanish name of the village.,,name.2016-11-21.0589753195,unlocated,1453,640,2018-01-30T21:37:08Z,Morana,es,Morana,/places/265975/name.2016-11-21.0589753195,/places/265975,,,,,M,mediaeval-byzantine,"640.0,1453.0",Morana,25ebb751439645f7b7f6ad4ddc463c3a
"Spann, P., R. Warner, R. Talbert, T. Elliott, S. Gillies","-2.812733, 36.775074, -2.812733, 36.775074",2010-09-24T19:04:30Z,P.O. Spann,,,"{""type"": ""Point"", ""coordinates"": [-2.812733, 36.775074]}",murgi,precise,300,-330,2012-02-14T22:52:02Z,,,Murgi,/places/265977/murgi,/places/265977,36.775074,"36.775074,-2.812733",-2.812733,,HR,"hellenistic-republican,roman","-330.0,300.0",Murgi,cfd1cc6a4f66da23d20f63115278e055
"Spann, P., R. Warner, R. Talbert, T. Elliott, S. Gillies","-4.184754, 37.870867, -4.184754, 37.870867",2010-09-24T19:04:32Z,P.O. Spann,0,,"{""type"": ""Point"", ""coordinates"": [-4.184754, 37.870867]}",obulco,precise,300,-330,2018-06-08T11:24:21Z,,,Obulco,/places/265982/obulco,/places/265982,37.870867,"37.870867,-4.184754",-4.184754,,HR,"hellenistic-republican,roman","-330.0,300.0",Obulco,e5d774a57eb8debdc41fa8e6cb2e6229
"Spann, P., R. Warner, R. Talbert, T. Elliott, S. Gillies","-4.184754, 37.870867, -4.184754, 37.870867",2010-09-24T19:04:32Z,P.O. Spann,1,,"{""type"": ""Point"", ""coordinates"": [-4.184754, 37.870867]}",municipium-pontificense,precise,300,-330,2018-06-08T11:24:21Z,,,Municipium Pontificense,/places/265982/municipium-pontificense,/places/265982,37.870867,"37.870867,-4.184754",-4.184754,,HR,"hellenistic-republican,roman","-330.0,300.0",Municipium Pontificense,2c7abfe7a0a57e368f726d8e77dbfeaa
"Jesús Redondo, M.",,2016-11-21T20:14:46Z,mjredondo,1,Medieval and modern Spanish name of village located in the west of the province of Jaén that belonged to the kingdom of Alfonso X.,,name.2016-11-21.0350596899,unlocated,2100,640,2018-06-08T11:24:21Z,Porcuna,es,Porcuna,/places/265982/name.2016-11-21.0350596899,/places/265982,,,,,MM,"mediaeval-byzantine,modern","640.0,2100.0",Porcuna,d50210b7b47f480a950aee9ac1fa8942
"Spann, P., R. Warner, R. Talbert, T. Elliott, S. Gillies","-2.86232, 39.98188, -2.86232, 39.98188",2010-09-24T19:04:34Z,P.O. Spann,,,"{""type"": ""Point"", ""coordinates"": [-2.86232, 39.98188]}",ocules,precise,300,-30,2012-02-14T22:52:04Z,,,Ocules,/places/265983/ocules,/places/265983,39.98188,"39.98188,-2.86232",-2.86232,,R,roman,"-30.0,300.0",Ocules,ca176866161a4ef6266fa07e01e9adf9
"Jesús Redondo, M., J. Becker",,2016-12-09T11:54:06Z,mjredondo,3,"Vcles, a village located in the northwest of the province of Cuenca, is the Medieval name of ancient Ocules. In the thirteenth century it belonged to the kingdom of Alfonso X.",,vcles,unlocated,1453,640,2017-11-29T17:21:56Z,Vcles,es,Vcles,/places/265983/vcles,/places/265983,,,,,M,mediaeval-byzantine,"640.0,1453.0",Vcles,93c17de1f1e94332b4346a8635ce5a62
"Jesús Redondo, M., J. Becker",,2016-12-09T11:57:02Z,mjredondo,2,The modern name of the ancient place known as Ocules.,,ucla-c-s,unlocated,2100,1700,2016-12-10T02:27:00Z,Uclés,es,Uclés,/places/265983/ucla-c-s,/places/265983,,,,,M,modern,"1700.0,2100.0",Uclés,62bc4e1a421042738b69e61e591769cc
"Spann, P., R. Warner, R. Talbert, T. Elliott, S. Gillies","-5.0, 39.0, -4.0, 40.0",2010-09-24T19:04:36Z,P.O. Spann,1,,"{""type"": ""Polygon"", ""coordinates"": [[[-5.0, 39.0], [-5.0, 40.0], [-4.0, 40.0], [-4.0, 39.0], [-5.0, 39.0]]]}",olcades,rough,-30,-330,2021-02-25T22:57:44Z,,,Olcades,/places/265984/olcades,/places/265984,39.5,"39.5,-4.5",-4.5,,H,hellenistic-republican,"-330.0,-30.0",Olcades,20c399f5ccf7bfd627c470420b7cf47f
"Spann, P., R. Warner, R. Talbert, T. Elliott, S. Gillies","-4.496471, 37.953182, -4.496471, 37.953182",2010-09-24T19:04:38Z,P.O. Spann,,,"{""type"": ""Point"", ""coordinates"": [-4.496471, 37.953182]}",onuba,precise,300,-330,2012-02-14T22:52:06Z,,,Onuba,/places/265985/onuba,/places/265985,37.953182,"37.953182,-4.496471",-4.496471,,HR,"hellenistic-republican,roman","-330.0,300.0",Onuba,516cdeb6be8bf70ccd90a86263f6174f
"Spann, P., R. Warner, R. Talbert, T. Elliott, S. Gillies","-2.687313, 40.145946, -2.687313, 40.145946",2010-09-24T19:04:39Z,P.O. Spann,,,"{""type"": ""Point"", ""coordinates"": [-2.687313, 40.145946]}",opta,precise,300,-330,2012-02-14T22:52:07Z,,,Opta,/places/265987/opta,/places/265987,40.145946,"40.145946,-2.687313",-2.687313,,HR,"hellenistic-republican,roman","-330.0,300.0",Opta,aaea91f702e6d7bfe2b1421c924637aa
"Spann, P., R. Warner, R. Talbert, S. Gillies, T. Elliott, J. Becker","-4.0, 38.0, -3.0, 39.0",2010-09-24T19:04:41Z,P.O. Spann,1,,"{""type"": ""Polygon"", ""coordinates"": [[[-4.0, 38.0], [-4.0, 39.0], [-3.0, 39.0], [-3.0, 38.0], [-4.0, 38.0]]]}",oretana-iuga,rough,300,-30,2018-09-26T14:22:56Z,,la,Oretana Iuga,/places/265988/oretana-iuga,/places/265988,38.5,"38.5,-3.5",-3.5,,R,roman,"-30.0,300.0",Oretana Iuga,bed037d77d73ce443f74c388eb114a44
"Spann, P., R. Warner, R. Talbert, T. Elliott, S. Gillies","-4.0, 38.0, -3.0, 39.0",2010-09-24T19:04:43Z,P.O. Spann,,,"{""type"": ""Polygon"", ""coordinates"": [[[-4.0, 38.0], [-4.0, 39.0], [-3.0, 39.0], [-3.0, 38.0], [-4.0, 38.0]]]}",oretania,rough,300,-330,2012-02-14T22:52:08Z,,,Oretania,/places/265989/oretania,/places/265989,38.5,"38.5,-3.5",-3.5,,HR,"hellenistic-republican,roman","-330.0,300.0",Oretania,d29c382c5d59634c03d227caf6852b9f
"Spann, P., R. Warner, R. Talbert, T. Elliott, S. Gillies","-4.0, 38.0, -3.0, 39.0",2010-09-24T19:04:43Z,P.O. Spann,,,"{""type"": ""Polygon"", ""coordinates"": [[[-4.0, 38.0], [-4.0, 39.0], [-3.0, 39.0], [-3.0, 38.0], [-4.0, 38.0]]]}",oretani,rough,300,-330,2012-02-14T22:52:08Z,,,Oretani,/places/265989/oretani,/places/265989,38.5,"38.5,-3.5",-3.5,,HR,"hellenistic-republican,roman","-330.0,300.0",Oretani,68bdbc28c7aa9d1a4de84e11a79c03f5
"Becker, J., T. Elliott","-4.0, 38.0, -3.0, 39.0",2014-12-13T17:48:18Z,jbecker,4,,"{""type"": ""Polygon"", ""coordinates"": [[[-4.0, 38.0], [-4.0, 39.0], [-3.0, 39.0], [-3.0, 38.0], [-4.0, 38.0]]]}",oretanoi,rough,300,-30,2019-06-13T15:06:48Z,Ὠρητανοί,grc,Oretanoi,/places/265989/oretanoi,/places/265989,38.5,"38.5,-3.5",-3.5,,R,roman,"-30.0,300.0",Oretanoi,8d51a7f7e5c821acd91f489deadb4cab
"Spann, P., R. Warner, R. Talbert, T. Elliott, S. Gillies","-4.0, 38.0, -3.0, 39.0",2010-09-24T19:04:44Z,P.O. Spann,0,,"{""type"": ""Polygon"", ""coordinates"": [[[-4.0, 38.0], [-4.0, 39.0], [-3.0, 39.0], [-3.0, 38.0], [-4.0, 38.0]]]}",oretum,precise,640,-330,2016-02-06T16:56:29Z,,,Oretum,/places/265990/oretum,/places/265990,38.760085,"38.760085,-3.718138",-3.718138,,HRL,"hellenistic-republican,roman,late-antique","-330.0,640.0",Oretum,304e156dc68d34322c4639fdc2da52dd
"Spann, P., R. Warner, R. Talbert, T. Elliott, S. Gillies","-4.0, 38.0, -3.0, 39.0",2010-09-24T19:04:45Z,P.O. Spann,1,,"{""type"": ""Polygon"", ""coordinates"": [[[-4.0, 38.0], [-4.0, 39.0], [-3.0, 39.0], [-3.0, 38.0], [-4.0, 38.0]]]}",oria,precise,640,-330,2016-02-06T16:56:32Z,,,Oria,/places/265990/oria,/places/265990,38.760085,"38.760085,-3.718138",-3.718138,,HRL,"hellenistic-republican,roman,late-antique","-330.0,640.0",Oria,cdbc651334c2cfb8f84e99a6633a2acc
"Spann, P., R. Warner, R. Talbert, T. Elliott, S. Gillies","-4.0, 38.0, -3.0, 39.0",2010-09-24T19:04:45Z,P.O. Spann,1,,"{""type"": ""Polygon"", ""coordinates"": [[[-4.0, 38.0], [-4.0, 39.0], [-3.0, 39.0], [-3.0, 38.0], [-4.0, 38.0]]]}",horetum,precise,640,-330,2016-02-06T16:56:35Z,,,Horetum,/places/265990/horetum,/places/265990,38.760085,"38.760085,-3.718138",-3.718138,,HRL,"hellenistic-republican,roman,late-antique","-330.0,640.0",Horetum,3797c33d8c956a16f284bd93b8a1b031
"Spann, P., R. Warner, R. Talbert, T. Elliott, S. Gillies","-3.0, 37.0, -2.0, 38.0",2010-09-24T19:04:47Z,P.O. Spann,1,,"{""type"": ""Polygon"", ""coordinates"": [[[-3.0, 37.0], [-3.0, 38.0], [-2.0, 38.0], [-2.0, 37.0], [-3.0, 37.0]]]}",Orospeda-M,rough,300,-330,2021-03-01T22:40:41Z,,,Orospeda,/places/265992/Orospeda-M,/places/265992,37.5,"37.5,-2.5",-2.5,,HR,"hellenistic-republican,roman","-330.0,300.0",Orospeda,1692c4abc050278505e917980c8c4400
"Spann, P., R. Warner, R. Talbert, T. Elliott, S. Gillies","-3.560303, 37.848915, -3.560303, 37.848915",2010-09-24T19:04:48Z,P.O. Spann,,,"{""type"": ""Point"", ""coordinates"": [-3.560303, 37.848915]}",ossigi,precise,640,-30,2012-02-14T22:52:11Z,,,Ossigi,/places/265994/ossigi,/places/265994,37.848915,"37.848915,-3.560303",-3.560303,,RL,"roman,late-antique","-30.0,640.0",Ossigi,597dbc9a9c47135f72c35e3edcde7469
"Spann, P., R. Warner, R. Talbert, T. Elliott, S. Gillies","-3.560303, 37.848915, -3.560303, 37.848915",2010-09-24T19:04:49Z,P.O. Spann,,,"{""type"": ""Point"", ""coordinates"": [-3.560303, 37.848915]}",municipium-latonium,precise,640,-30,2012-02-14T22:52:11Z,,,Municipium Latonium,/places/265994/municipium-latonium,/places/265994,37.848915,"37.848915,-3.560303",-3.560303,,RL,"roman,late-antique","-30.0,640.0",Municipium Latonium,b96ba4fb61c698fdc406beab3ae3f09d
"Spann, P., R. Warner, R. Talbert, T. Elliott, S. Gillies","2.649993, 39.569443, 2.649993, 39.569443",2010-09-24T19:04:55Z,P.O. Spann,0,,"{""type"": ""Point"", ""coordinates"": [2.649993, 39.569443]}",palma,precise,640,-330,2018-06-08T00:41:54Z,,,Palma,/places/265998/palma,/places/265998,39.569443,"39.569443,2.649993",2.649993,,HRL,"hellenistic-republican,roman,late-antique","-330.0,640.0",Palma,c190694cd3c02e562a6cb6636a8b0246
"Spann, P., R. Warner, R. Talbert, T. Elliott, S. Gillies","-2.008396, 38.962484, -2.008396, 38.962484",2010-09-24T19:04:57Z,P.O. Spann,,,"{""type"": ""Point"", ""coordinates"": [-2.008396, 38.962484]}",parietinae,precise,300,-330,2012-02-14T22:52:14Z,,,Parietinae,/places/265999/parietinae,/places/265999,38.962484,"38.962484,-2.008396",-2.008396,,HR,"hellenistic-republican,roman","-330.0,300.0",Parietinae,38e41963fa73477ebb1f981b41359a67
"Spann, P., R. Warner, R. Talbert, S. Gillies, T. Elliott, J. Becker",,2010-09-24T19:05:00Z,P.O. Spann,2,,,pityussae,unlocated,640,-750,2020-01-08T14:51:51Z,Pityussae,la,Pityussae,/places/266001/pityussae,/places/266001,,,,,ACHRL,"archaic,classical,hellenistic-republican,roman,late-antique","-750.0,640.0",Pityussae,5a3c2135c4e2afe64d9ea3810f0555ea
"Becker, J., T. Elliott",,2015-05-01T03:59:51Z,jbecker,2,,,pityoussai,unlocated,300,-30,2020-12-18T22:59:14Z,Πιτυοῦσσαι,grc,"Pityoussai, Pityoûssai",/places/266001/pityoussai,/places/266001,,,,,R,roman,"-30.0,300.0",Pityoussai,11d32ae7d80556fa9e8408db9245c4b8
"Spann, P., R. Warner, R. Talbert, T. Elliott, S. Gillies","0.0, 38.0, 1.0, 39.0",2010-09-24T19:05:01Z,P.O. Spann,,,"{""type"": ""Polygon"", ""coordinates"": [[[0.0, 38.0], [0.0, 39.0], [1.0, 39.0], [1.0, 38.0], [0.0, 38.0]]]}",planesia,rough,300,-330,2012-02-14T22:52:17Z,,,Planesia,/places/266002/planesia,/places/266002,38.5,"38.5,0.5",0.5,,HR,"hellenistic-republican,roman","-330.0,300.0",Planesia,f853a2efe49b10a874ab0318da2d8c02
"Spann, P., R. Warner, R. Talbert, T. Elliott, S. Gillies",,2010-09-24T19:05:04Z,P.O. Spann,0,,,pollentia,unlocated,640,-330,2020-04-03T18:38:59Z,,,Pollentia,/places/266004/pollentia,/places/266004,,,,,HRL,"hellenistic-republican,roman,late-antique","-330.0,640.0",Pollentia,984b70a1e67e85926126ae6a89a8d626
"Spann, P., R. Warner, R. Talbert, T. Elliott, S. Gillies","-2.467902, 36.840205, -2.467902, 36.840205",2010-09-24T19:05:07Z,P.O. Spann,,,"{""type"": ""Point"", ""coordinates"": [-2.467902, 36.840205]}",portos-magnos,precise,300,-30,2012-02-14T22:52:19Z,,,Portos Magnos,/places/266005/portos-magnos,/places/266005,36.840205,"36.840205,-2.467902",-2.467902,,R,roman,"-30.0,300.0",Portos Magnos,f761214e23b8b6c410bd2883f05f456e
"Spann, P., R. Warner, R. Talbert, T. Elliott, S. Gillies","-0.255923, 39.165103, -0.255923, 39.165103",2010-09-24T19:05:08Z,P.O. Spann,,,"{""type"": ""Point"", ""coordinates"": [-0.255923, 39.165103]}",portus-sucronis,precise,640,300,2012-02-14T22:52:20Z,,,Portus Sucronis,/places/266006/portus-sucronis,/places/266006,39.165103,"39.165103,-0.255923",-0.255923,,L,late-antique,"300.0,640.0",Portus Sucronis,b38abb9b3c34357edf1b49eb16bac63c
"Spann, P., R. Warner, R. Talbert, T. Elliott, S. Gillies","-4.50716, 38.005797, -4.50716, 38.005797",2010-09-24T19:05:20Z,P.O. Spann,,,"{""type"": ""Point"", ""coordinates"": [-4.50716, 38.005797]}",sacili,precise,300,-330,2012-02-14T22:52:26Z,,,Sacili,/places/266017/sacili,/places/266017,38.005797,"38.005797,-4.50716",-4.50716,,HR,"hellenistic-republican,roman","-330.0,300.0",Sacili,9f0cbccf7f3cb33b22fed92024644c2b
"Spann, P., R. Warner, R. Talbert, T. Elliott, S. Gillies","-4.50716, 38.005797, -4.50716, 38.005797",2010-09-24T19:05:20Z,P.O. Spann,,,"{""type"": ""Point"", ""coordinates"": [-4.50716, 38.005797]}",municipium-martiale,precise,300,-330,2012-02-14T22:52:26Z,,,Municipium Martiale,/places/266017/municipium-martiale,/places/266017,38.005797,"38.005797,-4.50716",-4.50716,,HR,"hellenistic-republican,roman","-330.0,300.0",Municipium Martiale,330040e03c2ee29ab304bd5dd277ca99
"Spann, P., R. Warner, R. Talbert, S. Gillies, T. Elliott, J. Becker","-1.0, 38.988847, 0.0, 40.0",2010-09-24T19:05:22Z,P.O. Spann,0,,"{""type"": ""Polygon"", ""coordinates"": [[[-1.0, 38.988847], [-1.0, 40.0], [0.0, 40.0], [0.0, 38.988847], [-1.0, 38.988847]]]}",saetabis,precise,640,-330,2015-08-08T21:42:24Z,,la,Saetabis,/places/266018/saetabis,/places/266018,38.988847,"38.988847,-0.515639",-0.515639,,HRL,"hellenistic-republican,roman,late-antique","-330.0,640.0",Saetabis,760d9f376533bba1150c9d4c959b38a5
"Spann, P., R. Warner, R. Talbert, T. Elliott, S. Gillies","-1.0, 38.0, 0.0, 39.0",2010-09-24T19:05:25Z,P.O. Spann,0,,"{""type"": ""Polygon"", ""coordinates"": [[[-1.0, 38.0], [-1.0, 39.0], [0.0, 39.0], [0.0, 38.0], [-1.0, 38.0]]]}",saetabis,rough,300,-30,2017-10-27T20:21:20Z,,,Saetabis,/places/266019/saetabis,/places/266019,38.5,"38.5,-0.5",-0.5,,R,roman,"-30.0,300.0",Saetabis,191c1778165c0cebea4e050ffe0cabd6
"Spann, P., R. Warner, R. Talbert, S. Gillies, T. Elliott","-1.0, 39.0, 0.0, 40.0",2010-09-24T19:05:28Z,P.O. Spann,3,,"{""type"": ""Polygon"", ""coordinates"": [[[-1.0, 39.0], [-1.0, 40.0], [0.0, 40.0], [0.0, 39.0], [-1.0, 39.0]]]}",saguntum,precise,640,-550,2013-12-01T16:35:06Z,Saguntum,la,Saguntum,/places/266021/saguntum,/places/266021,39.678125,"39.678125,-0.2772475",-0.2772475,,CHRL,"classical,hellenistic-republican,roman,late-antique","-550.0,640.0",Saguntum,869da64e8f85b15a142193cd47961da2
"Spann, P., R. Warner, R. Talbert, T. Elliott, S. Gillies","-1.0, 39.0, 0.0, 40.0",2010-09-24T19:05:28Z,P.O. Spann,1,,"{""type"": ""Polygon"", ""coordinates"": [[[-1.0, 39.0], [-1.0, 40.0], [0.0, 40.0], [0.0, 39.0], [-1.0, 39.0]]]}",arse,precise,640,-550,2013-12-01T16:35:15Z,,,Arse,/places/266021/arse,/places/266021,39.678125,"39.678125,-0.2772475",-0.2772475,,CHRL,"classical,hellenistic-republican,roman,late-antique","-550.0,640.0",Arse,bb006a9a495eba46f324b8721f7717e0
"Spann, P., R. Warner, R. Talbert, T. Elliott, S. Gillies","-3.368532, 38.008075, -3.368532, 38.008075",2010-09-24T19:05:30Z,P.O. Spann,,,"{""type"": ""Point"", ""coordinates"": [-3.368532, 38.008075]}",salaria,precise,300,-330,2012-02-14T22:52:30Z,,,Salaria,/places/266022/salaria,/places/266022,38.008075,"38.008075,-3.368532",-3.368532,,HR,"hellenistic-republican,roman","-330.0,300.0",Salaria,fb9ce4e9fb8517f6c7051254ac2bdab0
"Spann, P., R. Warner, R. Talbert, T. Elliott, S. Gillies","-3.368532, 38.008075, -3.368532, 38.008075",2010-09-24T19:05:30Z,P.O. Spann,,,"{""type"": ""Point"", ""coordinates"": [-3.368532, 38.008075]}",col-salariensis,precise,300,-330,2012-02-14T22:52:30Z,,,Col. Salariensis,/places/266022/col-salariensis,/places/266022,38.008075,"38.008075,-3.368532",-3.368532,,HR,"hellenistic-republican,roman","-330.0,300.0",Col. Salariensis,a19590bdc47848531480aba8560228ec
"Jesús Redondo, M., J. Becker",,2016-11-09T19:45:13Z,mjredondo,3,Medieval Spanish name of village associated with modern Úbeda.,,name.2016-11-09.5881980417,unlocated,1453,640,2017-05-03T17:07:00Z,Vbeda,es,Vbeda,/places/266022/name.2016-11-09.5881980417,/places/266022,,,,,M,mediaeval-byzantine,"640.0,1453.0",Vbeda,e9d7784469814a4682a9d6111cf15db2
"Jesús Redondo, M., J. Becker",,2016-11-09T19:46:47Z,mjredondo,3,Modern Spanish name.,,name.2016-11-09.7471454256,unlocated,2100,1700,2016-12-14T19:09:45Z,Úbeda,es,Úbeda,/places/266022/name.2016-11-09.7471454256,/places/266022,,,,,M,modern,"1700.0,2100.0",Úbeda,d41f4dc183944065aec4cd96f8282126
"Spann, P., R. Warner, R. Talbert, T. Elliott, S. Gillies","-1.920214, 38.866536, -1.920214, 38.866536",2010-09-24T19:05:32Z,P.O. Spann,,,"{""type"": ""Point"", ""coordinates"": [-1.920214, 38.866536]}",salika,precise,300,-30,2012-02-14T22:52:31Z,,,Salika,/places/266023/salika,/places/266023,38.866536,"38.866536,-1.920214",-1.920214,,R,roman,"-30.0,300.0",Salika,33b78fdcad1034f0e683e0bb6cd67831
"Spann, P., R. Warner, R. Talbert, T. Elliott, S. Gillies","-1.722773, 38.918645, -1.722773, 38.918645",2010-09-24T19:05:36Z,P.O. Spann,,,"{""type"": ""Point"", ""coordinates"": [-1.722773, 38.918645]}",saltigi,precise,640,-330,2012-02-14T22:52:32Z,,,Saltigi,/places/266025/saltigi,/places/266025,38.918645,"38.918645,-1.722773",-1.722773,,HRL,"hellenistic-republican,roman,late-antique","-330.0,640.0",Saltigi,f0ebb13df17d5952cb2ac3735e489603
"Spann, P., R. Warner, R. Talbert, S. Gillies, T. Elliott, J. Becker","4.087751, 40.071126, 4.087751, 40.071126",2010-09-24T19:05:38Z,P.O. Spann,1,,"{""type"": ""Point"", ""coordinates"": [4.087751, 40.071126]}",sanisera,precise,640,-330,2018-06-19T15:11:43Z,Sanisera,la,Sanisera,/places/266026/sanisera,/places/266026,40.071126,"40.071126,4.087751",4.087751,,HRL,"hellenistic-republican,roman,late-antique","-330.0,640.0",Sanisera,58dc18a8e8e56f16ad7e4e50d70ba45b
"Spann, P., R. Warner, R. Talbert, T. Elliott, S. Gillies","-1.0, 37.0, 0.0, 38.0",2010-09-24T19:05:42Z,P.O. Spann,,,"{""type"": ""Polygon"", ""coordinates"": [[[-1.0, 37.0], [-1.0, 38.0], [0.0, 38.0], [0.0, 37.0], [-1.0, 37.0]]]}",saturni,rough,300,-30,2012-02-14T22:52:36Z,,,Saturni,/places/266030/saturni,/places/266030,37.5,"37.5,-0.5",-0.5,,R,roman,"-30.0,300.0",Saturni,b87764d0c0ed2cb6244cec2204b4f1a3
"Spann, P., R. Warner, R. Talbert, T. Elliott, S. Gillies","-1.0, 37.0, 0.0, 38.0",2010-09-24T19:05:42Z,P.O. Spann,,,"{""type"": ""Polygon"", ""coordinates"": [[[-1.0, 37.0], [-1.0, 38.0], [0.0, 38.0], [0.0, 37.0], [-1.0, 37.0]]]}",Scombraria-Pr,rough,300,-30,2012-02-14T22:52:36Z,,,Scombraria Pr.,/places/266030/Scombraria-Pr,/places/266030,37.5,"37.5,-0.5",-0.5,,R,roman,"-30.0,300.0",Scombraria Pr.,7e2d80338a4525af203177af1c78be72
"Spann, P., R. Warner, R. Talbert, S. Gillies, T. Elliott, J. Becker","-1.0, 37.0, 0.0, 38.0",2010-09-24T19:05:44Z,P.O. Spann,1,,"{""type"": ""Polygon"", ""coordinates"": [[[-1.0, 37.0], [-1.0, 38.0], [0.0, 38.0], [0.0, 37.0], [-1.0, 37.0]]]}",scombraria,rough,300,-330,2020-09-25T15:36:06Z,Σκομβραρία,grc,Scombraria,/places/266032/scombraria,/places/266032,37.5,"37.5,-0.5",-0.5,,HR,"hellenistic-republican,roman","-330.0,300.0",Scombraria,b0b24ccadc37eef3d9d3ebe604de95f0
"Spann, P., R. Warner, R. Talbert, T. Elliott, S. Gillies","-1.0, 37.0, 0.0, 38.0",2010-09-24T19:05:44Z,P.O. Spann,,,"{""type"": ""Polygon"", ""coordinates"": [[[-1.0, 37.0], [-1.0, 38.0], [0.0, 38.0], [0.0, 37.0], [-1.0, 37.0]]]}",hercules,rough,300,-330,2012-02-14T22:52:37Z,,,Hercules,/places/266032/hercules,/places/266032,37.5,"37.5,-0.5",-0.5,,HR,"hellenistic-republican,roman","-330.0,300.0",Hercules,a14b7b237ab1aa84742927fb4034f649
"Spann, P., R. Warner, R. Talbert, T. Elliott, S. Gillies","-0.138097, 39.959582, -0.138097, 39.959582",2010-09-24T19:05:46Z,P.O. Spann,,,"{""type"": ""Point"", ""coordinates"": [-0.138097, 39.959582]}",sebelaci,precise,640,-330,2012-02-14T22:52:38Z,,,Sebelaci,/places/266034/sebelaci,/places/266034,39.959582,"39.959582,-0.138097",-0.138097,,HRL,"hellenistic-republican,roman,late-antique","-330.0,640.0",Sebelaci,84f89ac3d0749066c6acb7ee6c2415d6
"Spann, P., R. Warner, R. Talbert, T. Elliott, S. Gillies","-1.418729, 38.239102, -1.418729, 38.239102",2010-09-24T19:05:48Z,P.O. Spann,0,,"{""type"": ""Point"", ""coordinates"": [-1.418729, 38.239102]}",segisa,precise,300,-330,2018-06-07T22:57:02Z,,,Segisa,/places/266035/segisa,/places/266035,38.239102,"38.239102,-1.418729",-1.418729,,HR,"hellenistic-republican,roman","-330.0,300.0",Segisa,2d94d21fdfe19134a1f751637337d005
"Spann, P., R. Warner, R. Talbert, T. Elliott, S. Gillies","-2.81302, 39.885321, -2.81302, 39.885321",2010-09-24T19:05:49Z,P.O. Spann,0,,"{""type"": ""Point"", ""coordinates"": [-2.81302, 39.885321]}",segobriga,precise,640,-330,2018-06-07T20:36:24Z,,,Segobriga,/places/266036/segobriga,/places/266036,39.885321,"39.885321,-2.81302",-2.81302,,HRL,"hellenistic-republican,roman,late-antique","-330.0,640.0",Segobriga,f6efb5cbe8e082885453c2e0b20d633c
"Becker, J.",,2016-07-01T19:10:48Z,jbecker,0,,,name.2016-07-01.1152086877,unlocated,2100,1700,2020-12-17T18:32:38Z,Segóbriga,en,Segobriga,/places/266036/name.2016-07-01.1152086877,/places/266036,,,,,M,modern,"1700.0,2100.0",Segobriga,47ac3072191e4daf88e014e8977cd8ee
"Spann, P., R. Warner, R. Talbert, T. Elliott, S. Gillies","-3.587137, 36.74623, -3.587137, 36.74623",2010-09-24T19:05:51Z,P.O. Spann,,,"{""type"": ""Point"", ""coordinates"": [-3.587137, 36.74623]}",selambina,precise,300,-30,2012-02-14T22:52:41Z,,,Selambina,/places/266037/selambina,/places/266037,36.74623,"36.74623,-3.587137",-3.587137,,R,roman,"-30.0,300.0",Selambina,32ddaf643b32d6cadcbb1bc8289f8d0c
"Spann, P., R. Warner, R. Talbert, T. Elliott, S. Gillies","-3.587137, 36.74623, -3.587137, 36.74623",2010-09-24T19:05:51Z,P.O. Spann,,,"{""type"": ""Point"", ""coordinates"": [-3.587137, 36.74623]}",sel,precise,300,-30,2012-02-14T22:52:41Z,,,Sel,/places/266037/sel,/places/266037,36.74623,"36.74623,-3.587137",-3.587137,,R,roman,"-30.0,300.0",Sel,c5f36775b04128741853732737024f04
"Spann, P., R. Warner, R. Talbert, T. Elliott, S. Gillies","-3.690755, 36.734589, -3.690755, 36.734589",2010-09-24T19:05:53Z,P.O. Spann,0,,"{""type"": ""Point"", ""coordinates"": [-3.690755, 36.734589]}",sexi,precise,640,-750,2018-06-07T20:33:29Z,,,Sexi,/places/266038/sexi,/places/266038,36.734589,"36.734589,-3.690755",-3.690755,,ACHRL,"archaic,classical,hellenistic-republican,roman,late-antique","-750.0,640.0",Sexi,38c552ac660408b925db49d3f3eaff17
"Spann, P., R. Warner, R. Talbert, T. Elliott, S. Gillies","-3.690755, 36.734589, -3.690755, 36.734589",2010-09-24T19:05:53Z,P.O. Spann,1,,"{""type"": ""Point"", ""coordinates"": [-3.690755, 36.734589]}",saxetanum,precise,640,-750,2018-06-07T20:33:29Z,,,Saxetanum,/places/266038/saxetanum,/places/266038,36.734589,"36.734589,-3.690755",-3.690755,,ACHRL,"archaic,classical,hellenistic-republican,roman,late-antique","-750.0,640.0",Saxetanum,9413dae0239cf395cb45cf774de2b5b5
"Spann, P., R. Warner, R. Talbert, T. Elliott, S. Gillies","-3.690755, 36.734589, -3.690755, 36.734589",2010-09-24T19:05:53Z,P.O. Spann,1,,"{""type"": ""Point"", ""coordinates"": [-3.690755, 36.734589]}",caesarea,precise,640,-750,2018-06-07T20:33:29Z,,,Caesarea,/places/266038/caesarea,/places/266038,36.734589,"36.734589,-3.690755",-3.690755,,ACHRL,"archaic,classical,hellenistic-republican,roman,late-antique","-750.0,640.0",Caesarea,730824dd28d27c9995a583051932f145
"Spann, P., R. Warner, R. Talbert, T. Elliott, S. Gillies","-3.690755, 36.734589, -3.690755, 36.734589",2010-09-24T19:05:54Z,P.O. Spann,1,,"{""type"": ""Point"", ""coordinates"": [-3.690755, 36.734589]}",firmum-iulium,precise,640,-750,2018-06-07T20:33:29Z,,,Firmum Iulium,/places/266038/firmum-iulium,/places/266038,36.734589,"36.734589,-3.690755",-3.690755,,ACHRL,"archaic,classical,hellenistic-republican,roman,late-antique","-750.0,640.0",Firmum Iulium,ae1f0679e1dd7e22eac636d6b8f4fd9b
"Becker, J., T. Elliott",,2014-01-11T18:13:59Z,jbecker,3,modern toponym,,name.2014-01-11.9935939740,unlocated,2100,1700,2019-12-17T20:08:19Z,Almuñécar,es,"Almuñécar, Almunecar",/places/266038/name.2014-01-11.9935939740,/places/266038,,,,CALCS,M,modern,"1700.0,2100.0",Almuñécar,51d0615353e5801707dde9078c56e55f
"Spann, P., R. Warner, R. Talbert, S. Gillies, T. Elliott, J. Becker","-4.518296, 38.645383, -4.517906, 38.646441",2010-09-24T19:05:58Z,P.O. Spann,1,,"{""type"": ""Polygon"", ""coordinates"": [[[-4.518296, 38.645383], [-4.518296, 38.646441], [-4.517906, 38.646441], [-4.517906, 38.645383], [-4.518296, 38.645383]]]}",sisapo,precise,640,-330,2018-11-11T20:02:18Z,,la,Sisapo,/places/266043/sisapo,/places/266043,38.645912,"38.645912,-4.518101",-4.518101,,HRL,"hellenistic-republican,roman,late-antique","-330.0,640.0",Sisapo,44bc42b40d4a3a0f946eeaba2264a4b0
"Spann, P., R. Warner, R. Talbert, T. Elliott, S. Gillies","-4.518296, 38.645383, -4.517906, 38.646441",2010-09-24T19:05:59Z,P.O. Spann,1,,"{""type"": ""Polygon"", ""coordinates"": [[[-4.518296, 38.645383], [-4.518296, 38.646441], [-4.517906, 38.646441], [-4.517906, 38.645383], [-4.518296, 38.645383]]]}",saesapo,precise,300,-330,2018-11-11T20:01:08Z,,,Saesapo,/places/266043/saesapo,/places/266043,38.645912,"38.645912,-4.518101",-4.518101,,HR,"hellenistic-republican,roman","-330.0,300.0",Saesapo,9e4e0df3ca1551d10f3a0eef41c3ec39
"Spann, P., R. Warner, R. Talbert, T. Elliott, S. Gillies","-4.518296, 38.645383, -4.517906, 38.646441",2010-09-24T19:05:59Z,P.O. Spann,1,,"{""type"": ""Polygon"", ""coordinates"": [[[-4.518296, 38.645383], [-4.518296, 38.646441], [-4.517906, 38.646441], [-4.517906, 38.645383], [-4.518296, 38.645383]]]}",sisalo,precise,640,-330,2018-11-11T20:01:08Z,,,Sisalo,/places/266043/sisalo,/places/266043,38.645912,"38.645912,-4.518101",-4.518101,,HRL,"hellenistic-republican,roman,late-antique","-330.0,640.0",Sisalo,d70f6d7643e767f75cbf9f841235dd63
"Spann, P., R. Warner, R. Talbert, T. Elliott, S. Gillies",,2010-09-24T19:06:02Z,P.O. Spann,1,,,Solorius-M,unlocated,640,-330,2021-03-01T22:41:06Z,Solorius,la,Solorius,/places/266046/Solorius-M,/places/266046,,,,,HRL,"hellenistic-republican,roman,late-antique","-330.0,640.0",Solorius,52e16497f97116f26ebf7b35c897fd6f
"Spann, P., R. Warner, R. Talbert, T. Elliott, S. Gillies","-1.0, 38.0, 0.0, 39.0",2010-09-24T19:06:03Z,P.O. Spann,0,,"{""type"": ""Polygon"", ""coordinates"": [[[-1.0, 38.0], [-1.0, 39.0], [0.0, 39.0], [0.0, 38.0], [-1.0, 38.0]]]}",sorobis,rough,300,-30,2017-10-27T20:21:23Z,,,Sorobis,/places/266047/sorobis,/places/266047,38.5,"38.5,-0.5",-0.5,,R,roman,"-30.0,300.0",Sorobis,841474fa5e40b74743118cf5f7c2caa3
"Spann, P., R. Warner, R. Talbert, T. Elliott, S. Gillies","-4.086746, 37.591059, -4.086746, 37.591059",2010-09-24T19:06:04Z,P.O. Spann,,,"{""type"": ""Point"", ""coordinates"": [-4.086746, 37.591059]}",sosontigi,precise,300,-30,2012-02-14T22:52:49Z,,,Sosontigi,/places/266048/sosontigi,/places/266048,37.591059,"37.591059,-4.086746",-4.086746,,R,roman,"-30.0,300.0",Sosontigi,364dd010bdbb6ade472f3994a6516c8f
"Spann, P., R. Warner, R. Talbert, T. Elliott, S. Gillies","-4.086746, 37.591059, -4.086746, 37.591059",2010-09-24T19:06:05Z,P.O. Spann,,,"{""type"": ""Point"", ""coordinates"": [-4.086746, 37.591059]}",sosintigi,precise,300,-30,2012-02-14T22:52:49Z,,,Sosintigi,/places/266048/sosintigi,/places/266048,37.591059,"37.591059,-4.086746",-4.086746,,R,roman,"-30.0,300.0",Sosintigi,5501dd08ceda1ee10567760626042de8
"Jesús Redondo, M., J. Becker",,2016-11-21T20:40:28Z,mjredondo,2,,,name.2016-11-21.6666317981,unlocated,1453,640,2018-02-07T21:41:27Z,Alcabdet,es,Alcabdet,/places/266048/name.2016-11-21.6666317981,/places/266048,,,,,M,mediaeval-byzantine,"640.0,1453.0",Alcabdet,73fa60faa1be4d1b94cdb13d96302a3a
"Jesús Redondo, M., J. Becker",,2016-11-21T20:42:14Z,mjredondo,2,,,name.2016-11-21.8700801895,unlocated,2100,1700,2016-11-22T16:25:59Z,Alcaudete,es,Alcaudete,/places/266048/name.2016-11-21.8700801895,/places/266048,,,,,M,modern,"1700.0,2100.0",Alcaudete,e98482aed1974403ac58fdd100c47988
"Spann, P., R. Warner, R. Talbert, T. Elliott, S. Gillies","-2.0, 37.0, -1.0, 38.0",2010-09-24T19:06:08Z,P.O. Spann,,,"{""type"": ""Polygon"", ""coordinates"": [[[-2.0, 37.0], [-2.0, 38.0], [-1.0, 38.0], [-1.0, 37.0], [-2.0, 37.0]]]}",spartarius-campus,rough,300,-30,2012-02-14T22:52:51Z,,,Spartarius Campus,/places/266050/spartarius-campus,/places/266050,37.5,"37.5,-1.5",-1.5,,R,roman,"-30.0,300.0",Spartarius Campus,d98c0835842204801cab444755cfb04e
"Spann, P., R. Warner, R. Talbert, T. Elliott, S. Gillies","-4.186553, 38.074265, -4.186553, 38.074265",2010-09-24T19:06:10Z,P.O. Spann,,,"{""type"": ""Point"", ""coordinates"": [-4.186553, 38.074265]}",sucia,precise,640,-330,2012-02-14T22:52:51Z,,,Sucia,/places/266051/sucia,/places/266051,38.074265,"38.074265,-4.186553",-4.186553,,HRL,"hellenistic-republican,roman,late-antique","-330.0,640.0",Sucia,2ad264e9feea7dfc5fe305196802f5fb
"Spann, P., R. Warner, R. Talbert, T. Elliott, S. Gillies","-4.186553, 38.074265, -4.186553, 38.074265",2010-09-24T19:06:10Z,P.O. Spann,,,"{""type"": ""Point"", ""coordinates"": [-4.186553, 38.074265]}",ucia,precise,640,-330,2012-02-14T22:52:51Z,,,Ucia,/places/266051/ucia,/places/266051,38.074265,"38.074265,-4.186553",-4.186553,,HRL,"hellenistic-republican,roman,late-antique","-330.0,640.0",Ucia,1644f1939ccc996f8baa19cd8f802109
"Spann, P., R. Warner, R. Talbert, T. Elliott, S. Gillies",,2010-09-24T19:06:10Z,P.O. Spann,,,,ouogia,unlocated,,,2012-02-14T22:52:51Z,,,Ouogia,/places/266051/ouogia,/places/266051,,,,,,,,Ouogia,95b8f46ba7d1e5240424a317f4d704ec
"Spann, P., R. Warner, R. Talbert, T. Elliott, S. Gillies",,2010-09-24T19:06:10Z,P.O. Spann,,,,setia,unlocated,,,2012-02-14T22:52:51Z,,,Setia,/places/266051/setia,/places/266051,,,,,,,,Setia,e1ed3bf8619e717b90fe946d001334bb
"Spann, P., R. Warner, R. Talbert, T. Elliott, S. Gillies",,2010-09-24T19:06:10Z,P.O. Spann,,,,sitia,unlocated,,,2012-02-14T22:52:51Z,,,Sitia,/places/266051/sitia,/places/266051,,,,,,,,Sitia,6b51aed5740895a9954d0781e4e2000a
"Spann, P., R. Warner, R. Talbert, T. Elliott, S. Gillies",,2010-09-24T19:06:11Z,P.O. Spann,,,,stia,unlocated,,,2012-02-14T22:52:51Z,,,Stia,/places/266051/stia,/places/266051,,,,,,,,Stia,f9b832eadaad33723037922efb91aa39
"Spann, P., R. Warner, R. Talbert, T. Elliott, S. Gillies",,2010-09-24T19:06:11Z,P.O. Spann,,,,sutia,unlocated,,,2012-02-14T22:52:51Z,,,Sutia,/places/266051/sutia,/places/266051,,,,,,,,Sutia,dcfa1b524f821578ac8fc323a620ebcc
"Spann, P., R. Warner, R. Talbert, S. Gillies, T. Elliott, J. Becker","-0.43809, 39.150204, -0.43809, 39.150204",2010-09-24T19:06:13Z,P.O. Spann,1,,"{""type"": ""Point"", ""coordinates"": [-0.43809, 39.150204]}",sucro,precise,300,-330,2018-06-08T11:06:13Z,Sucro oppidum,la,Sucro,/places/266052/sucro,/places/266052,39.150204,"39.150204,-0.43809",-0.43809,,HR,"hellenistic-republican,roman","-330.0,300.0",Sucro,4ea51b82347103e2b5826cb1ddf5bbd5
"Spann, P., R. Warner, R. Talbert, S. Gillies, T. Elliott, J. Becker","-1.0, 39.0, 0.0, 40.0",2010-09-24T19:06:14Z,P.O. Spann,0,,"{""type"": ""Polygon"", ""coordinates"": [[[-1.0, 39.0], [-1.0, 40.0], [0.0, 40.0], [0.0, 39.0], [-1.0, 39.0]]]}",sucro,unlocated,300,-330,2015-08-08T21:52:41Z,Sucro fluvius,la,Sucro,/places/266053/sucro,/places/266053,,,,,HR,"hellenistic-republican,roman","-330.0,300.0",Sucro,4c505c564788448231106afcaa4748b7
"Spann, P., R. Warner, R. Talbert, T. Elliott, S. Gillies","-1.0, 39.0, 0.0, 40.0",2010-09-24T19:06:17Z,P.O. Spann,,,"{""type"": ""Polygon"", ""coordinates"": [[[-1.0, 39.0], [-1.0, 40.0], [0.0, 40.0], [0.0, 39.0], [-1.0, 39.0]]]}",sucronensis-sinus,rough,300,-30,2012-02-14T22:52:56Z,,,Sucronensis Sinus,/places/266054/sucronensis-sinus,/places/266054,39.5,"39.5,-0.5",-0.5,,R,roman,"-30.0,300.0",Sucronensis Sinus,ef88330256a7adc14ce51c66561a4fe3
"Spann, P., R. Warner, R. Talbert, T. Elliott, S. Gillies","-4.628919, 36.525435, -4.628919, 36.525435",2010-09-24T19:06:18Z,P.O. Spann,,,"{""type"": ""Point"", ""coordinates"": [-4.628919, 36.525435]}",suel,precise,640,-750,2012-02-14T22:52:57Z,,,Suel,/places/266055/suel,/places/266055,36.525435,"36.525435,-4.628919",-4.628919,,ACHRL,"archaic,classical,hellenistic-republican,roman,late-antique","-750.0,640.0",Suel,f3ab5f7bfbc03745ffb048e785a6902a
"Spann, P., R. Warner, R. Talbert, T. Elliott, S. Gillies",,2010-09-24T19:06:20Z,P.O. Spann,0,,,tader,unlocated,300,-30,2017-10-27T20:21:26Z,,,Tader,/places/266057/tader,/places/266057,,,,,R,roman,"-30.0,300.0",Tader,b1d9f701df6ac4871ed9c4ac8f183cef
"Spann, P., R. Warner, R. Talbert, T. Elliott, S. Gillies","-2.439482, 37.345474, -2.439482, 37.345474",2010-09-24T19:06:21Z,P.O. Spann,,,"{""type"": ""Point"", ""coordinates"": [-2.439482, 37.345474]}",tagili,precise,300,-330,2012-02-14T22:52:58Z,,,Tagili,/places/266058/tagili,/places/266058,37.345474,"37.345474,-2.439482",-2.439482,,HR,"hellenistic-republican,roman","-330.0,300.0",Tagili,d34505e586fd923a4378ff4cbb24c449
"Spann, P., R. Warner, R. Talbert, T. Elliott, S. Gillies","-2.439482, 37.345474, -2.439482, 37.345474",2010-09-24T19:06:22Z,P.O. Spann,,,"{""type"": ""Point"", ""coordinates"": [-2.439482, 37.345474]}",respublica-tagilitana,precise,300,-330,2012-02-14T22:52:58Z,,,Respublica Tagilitana,/places/266058/respublica-tagilitana,/places/266058,37.345474,"37.345474,-2.439482",-2.439482,,HR,"hellenistic-republican,roman","-330.0,300.0",Respublica Tagilitana,1a8442f5355624ecca5921d36545129f
"Spann, P., R. Warner, R. Talbert, T. Elliott, S. Gillies","-4.0, 40.0, -3.0, 41.0",2010-09-24T19:06:23Z,P.O. Spann,,,"{""type"": ""Polygon"", ""coordinates"": [[[-4.0, 40.0], [-4.0, 41.0], [-3.0, 41.0], [-3.0, 40.0], [-4.0, 40.0]]]}",tagonios,rough,300,-330,2012-02-14T22:53:00Z,,,Tagonios,/places/266059/tagonios,/places/266059,40.5,"40.5,-3.5",-3.5,,HR,"hellenistic-republican,roman","-330.0,300.0",Tagonios,c3b1e44dbe287f7a9ad04ac8de0cd76b
"Spann, P., R. Warner, R. Talbert, T. Elliott, S. Gillies","-0.765831, 37.878103, -0.765831, 37.878103",2010-09-24T19:06:26Z,P.O. Spann,0,,"{""type"": ""Point"", ""coordinates"": [-0.765831, 37.878103]}",thiar,precise,640,-330,2018-06-08T11:36:57Z,,,Thiar,/places/266063/thiar,/places/266063,37.878103,"37.878103,-0.765831",-0.765831,,HRL,"hellenistic-republican,roman,late-antique","-330.0,640.0",Thiar,42dd10ac51338631ad6eb48ddd7c491b
"Spann, P., R. Warner, R. Talbert, S. Gillies, T. Elliott, J. Becker","-4.024491, 39.85668, -4.024491, 39.85668",2010-09-24T19:06:29Z,P.O. Spann,1,The ancient toponym as attested in Livy.,"{""type"": ""Point"", ""coordinates"": [-4.024491, 39.85668]}",toletum,precise,640,-330,2018-06-08T00:54:37Z,Toletum,la,Toletum,/places/266066/toletum,/places/266066,39.85668,"39.85668,-4.024491",-4.024491,,HRL,"hellenistic-republican,roman,late-antique","-330.0,640.0",Toletum,d9cc1d877257c34e93ae6b6281ff810f
"Åhlfeldt, J., J. Becker, S. Gillies",,2012-05-25T22:16:09Z,jahlfeldt,2,The modern name of ancient Toletum.,,toledo,unlocated,2100,1700,2018-06-08T00:54:37Z,Toledo,es,Toledo,/places/266066/toledo,/places/266066,,,,,M,modern,"1700.0,2100.0",Toledo,c69fc699a64d97d786d90d9e009b9950
"Jesús Redondo, M., J. Becker",,2016-12-02T15:47:08Z,mjredondo,4,The name of a medieval Spanish city that belonged to the thirteenth-century kingdom of Alfonso X.,,name.2016-12-02.4213869961,unlocated,1453,640,2018-06-08T00:54:38Z,Toledo,es,Toledo,/places/266066/name.2016-12-02.4213869961,/places/266066,,,,,M,mediaeval-byzantine,"640.0,1453.0",Toledo,fea54dd6dfba42518bcd164b575d46b4
"Becker, J.","-4.024491, 39.85668, -4.024491, 39.85668",2016-12-10T02:32:57Z,jbecker,0,,"{""type"": ""Point"", ""coordinates"": [-4.024491, 39.85668]}",toletani,precise,300,-30,2020-12-14T09:32:47Z,Toletani,la,Toletani,/places/266066/toletani,/places/266066,39.85668,"39.85668,-4.024491",-4.024491,,R,roman,"-30.0,300.0",Toletani,79388a7ff5fb413d8841b5b75bb8355a
"Spann, P., R. Warner, R. Talbert, S. Gillies, T. Elliott, J. Becker","-3.966243, 37.722761, -3.966243, 37.722761",2010-09-24T19:06:34Z,P.O. Spann,1,,"{""type"": ""Point"", ""coordinates"": [-3.966243, 37.722761]}",tucci,precise,640,-330,2018-06-08T11:38:04Z,Tucci,la,Tucci,/places/266070/tucci,/places/266070,37.722761,"37.722761,-3.966243",-3.966243,,HRL,"hellenistic-republican,roman,late-antique","-330.0,640.0",Tucci,d418795a89236ca23201d95ddd53eb69
"Spann, P., R. Warner, R. Talbert, S. Gillies, T. Elliott, J. Becker","-3.966243, 37.722761, -3.966243, 37.722761",2010-09-24T19:06:35Z,P.O. Spann,2,,"{""type"": ""Point"", ""coordinates"": [-3.966243, 37.722761]}",col-augusta-gemella,precise,640,-330,2018-08-31T01:49:49Z,Augusta Gemella,la,Col. Augusta Gemella,/places/266070/col-augusta-gemella,/places/266070,37.722761,"37.722761,-3.966243",-3.966243,,HRL,"hellenistic-republican,roman,late-antique","-330.0,640.0",Col. Augusta Gemella,e38f934a8b905e0709179a9f5c0c7f46
"Spann, P., R. Warner, R. Talbert, T. Elliott, S. Gillies","-3.966243, 37.722761, -3.966243, 37.722761",2010-09-24T19:06:35Z,P.O. Spann,1,,"{""type"": ""Point"", ""coordinates"": [-3.966243, 37.722761]}",itukke,precise,640,-330,2018-06-08T11:38:04Z,,,Itukke,/places/266070/itukke,/places/266070,37.722761,"37.722761,-3.966243",-3.966243,,HRL,"hellenistic-republican,roman,late-antique","-330.0,640.0",Itukke,20da4061d579adc7224b424d01ec10bb
"Jesús Redondo, M., J. Becker",,2016-11-10T11:23:37Z,mjredondo,3,Modern toponym for Tucci/Col. Augusta Gemella.,,name.2016-11-10.7897925950,unlocated,2100,640,2018-06-08T11:38:04Z,Martos,es,Martos,/places/266070/name.2016-11-10.7897925950,/places/266070,,,,,MM,"mediaeval-byzantine,modern","640.0,2100.0",Martos,6d232f783b0c4fe48756805e863a2370
"Spann, P., R. Warner, R. Talbert, T. Elliott, S. Gillies","3.21062, 39.568749, 3.21062, 39.568749",2010-09-24T19:06:36Z,P.O. Spann,,,"{""type"": ""Point"", ""coordinates"": [3.21062, 39.568749]}",tuci,precise,640,-30,2012-02-14T22:53:08Z,,,Tuci,/places/266071/tuci,/places/266071,39.568749,"39.568749,3.21062",3.21062,,RL,"roman,late-antique","-30.0,640.0",Tuci,d665d0ff85feb1e3fa8af27f6f218250
"Spann, P., R. Warner, R. Talbert, T. Elliott, S. Gillies","-3.152365, 37.877689, -3.152365, 37.877689",2010-09-24T19:06:38Z,P.O. Spann,0,,"{""type"": ""Point"", ""coordinates"": [-3.152365, 37.877689]}",tugia,precise,640,-550,2018-06-08T10:42:48Z,,,Tugia,/places/266072/tugia,/places/266072,37.877689,"37.877689,-3.152365",-3.152365,,CHRL,"classical,hellenistic-republican,roman,late-antique","-550.0,640.0",Tugia,51ceab96e27442cfc8c39e4914600295
"Spann, P., R. Warner, R. Talbert, T. Elliott, S. Gillies","-3.0, 37.0, -2.0, 38.0",2010-09-24T19:06:40Z,P.O. Spann,,,"{""type"": ""Polygon"", ""coordinates"": [[[-3.0, 37.0], [-3.0, 38.0], [-2.0, 38.0], [-2.0, 37.0], [-3.0, 37.0]]]}",tugiensis-saltus,rough,300,-330,2012-02-14T22:53:10Z,,,Tugiensis Saltus,/places/266073/tugiensis-saltus,/places/266073,37.5,"37.5,-2.5",-2.5,,HR,"hellenistic-republican,roman","-330.0,300.0",Tugiensis Saltus,ffa9f3233e0ddaefabb678e75c2c2726
"Spann, P., R. Warner, R. Talbert, T. Elliott, S. Gillies","-3.0, 36.0, -2.0, 37.0",2010-09-24T19:06:42Z,P.O. Spann,0,,"{""type"": ""Polygon"", ""coordinates"": [[[-3.0, 36.0], [-3.0, 37.0], [-2.0, 37.0], [-2.0, 36.0], [-3.0, 36.0]]]}",turaniana,precise,640,-30,2014-06-01T02:55:40Z,,,Turaniana,/places/266074/turaniana,/places/266074,36.814465,"36.814465,-2.571884",-2.571884,,RL,"roman,late-antique","-30.0,640.0",Turaniana,ea162c7282bbdfaa568fadb571e0c0ee
"Spann, P., R. Warner, R. Talbert, T. Elliott, S. Gillies","-5.0, 37.0, -4.0, 38.0",2010-09-24T19:06:43Z,P.O. Spann,,,"{""type"": ""Polygon"", ""coordinates"": [[[-5.0, 37.0], [-5.0, 38.0], [-4.0, 38.0], [-4.0, 37.0], [-5.0, 37.0]]]}",turdetania,rough,640,-330,2012-02-14T22:53:12Z,,,Turdetania,/places/266075/turdetania,/places/266075,37.5,"37.5,-4.5",-4.5,,HRL,"hellenistic-republican,roman,late-antique","-330.0,640.0",Turdetania,7abbda0165297cf7529f2053d6219d6e
"Spann, P., R. Warner, R. Talbert, T. Elliott, S. Gillies","-5.0, 37.0, -4.0, 38.0",2010-09-24T19:06:44Z,P.O. Spann,,,"{""type"": ""Polygon"", ""coordinates"": [[[-5.0, 37.0], [-5.0, 38.0], [-4.0, 38.0], [-4.0, 37.0], [-5.0, 37.0]]]}",turdetani,rough,640,-330,2012-02-14T22:53:12Z,,,Turdetani,/places/266075/turdetani,/places/266075,37.5,"37.5,-4.5",-4.5,,HRL,"hellenistic-republican,roman,late-antique","-330.0,640.0",Turdetani,09ea3ac0280d4a4ce6122c059e64dffc
"Spann, P., R. Warner, R. Talbert, T. Elliott, S. Gillies","-1.0, 39.0, 0.0, 40.0",2010-09-24T19:06:45Z,P.O. Spann,,,"{""type"": ""Polygon"", ""coordinates"": [[[-1.0, 39.0], [-1.0, 40.0], [0.0, 40.0], [0.0, 39.0], [-1.0, 39.0]]]}",turia,rough,300,-330,2012-02-14T22:53:13Z,,,Turia,/places/266076/turia,/places/266076,39.5,"39.5,-0.5",-0.5,,HR,"hellenistic-republican,roman","-330.0,300.0",Turia,ed9a1211837c3b1e1a15ac9eb92e0c83
"Becker, J.",,2017-06-16T13:38:47Z,jbecker,1,,,flumen-turium,unlocated,300,-30,2020-12-17T18:52:45Z,flumen Turium,la,flumen Turium,/places/266076/flumen-turium,/places/266076,,,,,R,roman,"-30.0,300.0",flumen Turium,1949322f8c24432fad9ce7c02dcf9deb
"Spann, P., R. Warner, R. Talbert, T. Elliott, S. Gillies","-2.551194, 37.742896, -2.551194, 37.742896",2010-09-24T19:06:47Z,P.O. Spann,,,"{""type"": ""Point"", ""coordinates"": [-2.551194, 37.742896]}",tutugi,precise,640,-750,2012-02-14T22:53:13Z,,,Tutugi,/places/266078/tutugi,/places/266078,37.742896,"37.742896,-2.551194",-2.551194,,ACHRL,"archaic,classical,hellenistic-republican,roman,late-antique","-750.0,640.0",Tutugi,ea8b87b3279231cfbd52e2d98abe2705
"Spann, P., R. Warner, R. Talbert, T. Elliott, S. Gillies","-4.552369, 37.682102, -4.552369, 37.682102",2010-09-24T19:06:48Z,P.O. Spann,0,,"{""type"": ""Point"", ""coordinates"": [-4.552369, 37.682102]}",ucubi,precise,300,-330,2018-06-08T00:28:45Z,,,Ucubi,/places/266081/ucubi,/places/266081,37.682102,"37.682102,-4.552369",-4.552369,,HR,"hellenistic-republican,roman","-330.0,300.0",Ucubi,fd31e92bab9759fb31180b8c0a766d4d
"Spann, P., R. Warner, R. Talbert, T. Elliott, S. Gillies","-4.552369, 37.682102, -4.552369, 37.682102",2010-09-24T19:06:49Z,P.O. Spann,1,,"{""type"": ""Point"", ""coordinates"": [-4.552369, 37.682102]}",col-claritas-iulia,precise,300,-330,2018-06-08T00:28:45Z,,,Col. Claritas Iulia,/places/266081/col-claritas-iulia,/places/266081,37.682102,"37.682102,-4.552369",-4.552369,,HR,"hellenistic-republican,roman","-330.0,300.0",Col. Claritas Iulia,1d2751f6a24a406a0b54326c00dd8156
"Spann, P., R. Warner, R. Talbert, T. Elliott, S. Gillies",,2010-09-24T19:06:50Z,P.O. Spann,0,,,udiva,unlocated,300,-30,2017-10-27T20:21:29Z,,,Udiva,/places/266082/udiva,/places/266082,,,,,R,roman,"-30.0,300.0",Udiva,7145048b32d22d205d46da7e89597f4b
"Spann, P., R. Warner, R. Talbert, T. Elliott, S. Gillies",,2010-09-24T19:06:50Z,P.O. Spann,1,,,uduba,unlocated,300,-30,2017-10-27T20:21:29Z,,,Uduba,/places/266082/uduba,/places/266082,,,,,R,roman,"-30.0,300.0",Uduba,3a5e9b3efee384677a1f4c40f28db51e
"Spann, P., R. Warner, R. Talbert, T. Elliott, S. Gillies","-2.450598, 36.913021, -2.450598, 36.913021",2010-09-24T19:06:52Z,P.O. Spann,,,"{""type"": ""Point"", ""coordinates"": [-2.450598, 36.913021]}",urci,precise,640,-330,2012-02-14T22:53:17Z,,,Urci,/places/266085/urci,/places/266085,36.913021,"36.913021,-2.450598",-2.450598,,HRL,"hellenistic-republican,roman,late-antique","-330.0,640.0",Urci,325dab95ce7f913580001f9b31480e07
"Spann, P., R. Warner, R. Talbert, T. Elliott, S. Gillies","-3.0, 36.0, -2.0, 37.0",2010-09-24T19:06:54Z,P.O. Spann,,,"{""type"": ""Polygon"", ""coordinates"": [[[-3.0, 36.0], [-3.0, 37.0], [-2.0, 37.0], [-2.0, 36.0], [-3.0, 36.0]]]}",urcitanus-sinus,rough,300,-30,2012-02-14T22:53:18Z,,,Urcitanus Sinus,/places/266086/urcitanus-sinus,/places/266086,36.5,"36.5,-2.5",-2.5,,R,roman,"-30.0,300.0",Urcitanus Sinus,45edd55876db9bab964fd61b3de23d8d
"Spann, P., R. Warner, R. Talbert, T. Elliott, S. Gillies","-4.054925, 37.93645, -4.054925, 37.93645",2010-09-24T19:06:57Z,P.O. Spann,,,"{""type"": ""Point"", ""coordinates"": [-4.054925, 37.93645]}",urgao,precise,640,-330,2012-02-14T22:53:18Z,,,Urgao,/places/266087/urgao,/places/266087,37.93645,"37.93645,-4.054925",-4.054925,,HRL,"hellenistic-republican,roman,late-antique","-330.0,640.0",Urgao,3ab809a175d25f961745ad8c4b2e7155
"Spann, P., R. Warner, R. Talbert, T. Elliott, S. Gillies","-4.054925, 37.93645, -4.054925, 37.93645",2010-09-24T19:06:57Z,P.O. Spann,,,"{""type"": ""Point"", ""coordinates"": [-4.054925, 37.93645]}",vircao,precise,640,-330,2012-02-14T22:53:18Z,,,Vircao,/places/266087/vircao,/places/266087,37.93645,"37.93645,-4.054925",-4.054925,,HRL,"hellenistic-republican,roman,late-antique","-330.0,640.0",Vircao,6444fec8260591e65d2e58e646e654b5
"Spann, P., R. Warner, R. Talbert, T. Elliott, S. Gillies","-4.054925, 37.93645, -4.054925, 37.93645",2010-09-24T19:06:58Z,P.O. Spann,,,"{""type"": ""Point"", ""coordinates"": [-4.054925, 37.93645]}",municipium-albense-urgauonense,precise,640,-330,2012-02-14T22:53:18Z,,,Municipium Albense Urgauonense,/places/266087/municipium-albense-urgauonense,/places/266087,37.93645,"37.93645,-4.054925",-4.054925,,HRL,"hellenistic-republican,roman,late-antique","-330.0,640.0",Municipium Albense Urgauonense,ef176b79c9cf156b9f073ba1e3a86966
"Jesús Redondo, M.",,2016-11-10T12:14:30Z,mjredondo,1,Medieval Spanish name of village associated with modern Arjona.,,name.2016-11-10.9626553982,unlocated,1453,640,2017-05-06T12:42:56Z,Ariona,es,Ariona,/places/266087/name.2016-11-10.9626553982,/places/266087,,,,,M,mediaeval-byzantine,"640.0,1453.0",Ariona,2bbeb32041734a008f852e18880dba54
"Jesús Redondo, M., J. Becker",,2016-11-10T12:16:00Z,mjredondo,1,,,name.2016-11-10.0879442856,unlocated,2100,1700,2016-11-11T03:31:01Z,Arjona,es,Arjona,/places/266087/name.2016-11-10.0879442856,/places/266087,,,,,M,modern,"1700.0,2100.0",Arjona,867a717c62e742aa9a693580bc641daa
"Spann, P., R. Warner, R. Talbert, T. Elliott, S. Gillies","-0.376813, 39.470371, -0.376813, 39.470371",2010-09-24T19:06:59Z,P.O. Spann,0,,"{""type"": ""Point"", ""coordinates"": [-0.376813, 39.470371]}",valentia,precise,640,-330,2018-06-08T10:38:53Z,,,Valentia,/places/266090/valentia,/places/266090,39.470371,"39.470371,-0.376813",-0.376813,,HRL,"hellenistic-republican,roman,late-antique","-330.0,640.0",Valentia,dc50e1a3d57de9ce8536e9ce4e94bd6c
"Spann, P., R. Warner, R. Talbert, T. Elliott, S. Gillies","-2.151217, 39.809156, -2.147484, 39.813222",2010-09-24T19:07:02Z,P.O. Spann,,,"{""type"": ""Polygon"", ""coordinates"": [[[-2.151217, 39.809156], [-2.151217, 39.813222], [-2.147484, 39.813222], [-2.147484, 39.809156], [-2.151217, 39.809156]]]}",valeria,precise,640,-330,2012-02-14T22:53:22Z,,,Valeria,/places/266092/valeria,/places/266092,39.811189,"39.811189,-2.1493505",-2.1493505,,HRL,"hellenistic-republican,roman,late-antique","-330.0,640.0",Valeria,35849e68ec0660534bca6b0a0e65c71e
"Spann, P., R. Warner, R. Talbert, T. Elliott, S. Gillies","-3.538666, 37.626929, -3.538666, 37.626929",2010-09-24T19:07:03Z,P.O. Spann,,,"{""type"": ""Point"", ""coordinates"": [-3.538666, 37.626929]}",vergilia,precise,640,-30,2012-02-14T22:53:23Z,,,Vergilia,/places/266093/vergilia,/places/266093,37.626929,"37.626929,-3.538666",-3.538666,,RL,"roman,late-antique","-30.0,640.0",Vergilia,6bc94398c7bdcfb3dca839bb9db756ac
"Spann, P., R. Warner, R. Talbert, T. Elliott, S. Gillies","-3.499679, 39.960387, -3.499679, 39.960387",2010-09-24T19:07:05Z,P.O. Spann,,,"{""type"": ""Point"", ""coordinates"": [-3.499679, 39.960387]}",vicus-cuminarius,precise,640,-30,2012-02-14T22:53:24Z,,,Vicus Cuminarius,/places/266094/vicus-cuminarius,/places/266094,39.960387,"39.960387,-3.499679",-3.499679,,RL,"roman,late-antique","-30.0,640.0",Vicus Cuminarius,36c5c37c5a44dec22f2e91d6b653bb9b
"Spann, P., R. Warner, R. Talbert, T. Elliott, S. Gillies","-4.0, 37.0, -3.0, 38.0",2010-09-24T19:07:09Z,P.O. Spann,0,,"{""type"": ""Polygon"", ""coordinates"": [[[-4.0, 37.0], [-4.0, 38.0], [-3.0, 38.0], [-3.0, 37.0], [-4.0, 37.0]]]}",viniolae,rough,640,-30,2013-10-04T02:52:21Z,,,Viniolae,/places/266097/viniolae,/places/266097,37.5,"37.5,-3.5",-3.5,,RL,"roman,late-antique","-30.0,640.0",Viniolae,9e6ff291ec9b96b480d214d06ca66985
"Spann, P., R. Warner, R. Talbert, T. Elliott, S. Gillies","-4.0, 37.0, -3.0, 38.0",2010-09-24T19:07:10Z,P.O. Spann,,,"{""type"": ""Polygon"", ""coordinates"": [[[-4.0, 37.0], [-4.0, 38.0], [-3.0, 38.0], [-3.0, 37.0], [-4.0, 37.0]]]}",vivatia,rough,640,-30,2012-02-14T22:53:27Z,,,Vivatia,/places/266099/vivatia,/places/266099,37.5,"37.5,-3.5",-3.5,,RL,"roman,late-antique","-30.0,640.0",Vivatia,0642441263218cfb1b423f4291314be6
"Spann, P., R. Warner, R. Talbert, T. Elliott, S. Gillies","-4.0, 37.0, -3.0, 38.0",2010-09-24T19:07:11Z,P.O. Spann,,,"{""type"": ""Polygon"", ""coordinates"": [[[-4.0, 37.0], [-4.0, 38.0], [-3.0, 38.0], [-3.0, 37.0], [-4.0, 37.0]]]}",viatia,rough,640,-30,2012-02-14T22:53:27Z,,,Viatia,/places/266099/viatia,/places/266099,37.5,"37.5,-3.5",-3.5,,RL,"roman,late-antique","-30.0,640.0",Viatia,d0b9e5fb33b3baa04e47884445f8599b
"Spann, P., R. Warner, R. Talbert, T. Elliott, S. Gillies",,2010-09-24T19:07:11Z,P.O. Spann,,,,biatia,unlocated,,,2012-02-14T22:53:27Z,,,Biatia,/places/266099/biatia,/places/266099,,,,,,,,Biatia,2fa27807c9485874f32326f342d7aa59
"Elliott, T.",,2020-10-14T19:47:18Z,thomase,0,,,puente-romano-de-andujar,unlocated,2100,1700,2020-10-14T21:04:55Z,Puente romano de Andújar,es,Puente romano de Andújar,/places/267272/puente-romano-de-andujar,/places/267272,,,,,M,modern,"1700.0,2100.0",Puente romano de Andújar,e4864ade4bdb45a6a1a1ab3fe8461c0d
"Spann, P., R. Warner, R. Talbert, T. Elliott, S. Gillies",,2010-09-24T18:56:26Z,P.O. Spann,,,,adiungi,unlocated,640,300,2012-02-14T22:54:00Z,,,Adiungi,/places/270292/adiungi,/places/270292,,,,,L,late-antique,"300.0,640.0",Adiungi,4a511268c6d5e9ee9091424fcd01bf25
"Spann, P., R. Warner, R. Talbert, T. Elliott, S. Gillies",,2010-09-24T18:56:27Z,P.O. Spann,,,,aimiliana,unlocated,300,-30,2012-02-14T22:54:01Z,,,Aimiliana,/places/270293/aimiliana,/places/270293,,,,,R,roman,"-30.0,300.0",Aimiliana,27126a83a9da1a70d251aa4279c957b6
"Spann, P., R. Warner, R. Talbert, T. Elliott, S. Gillies",,2010-09-24T18:56:29Z,P.O. Spann,,,,alternum,unlocated,640,-30,2012-02-14T22:54:01Z,,,Alternum,/places/270294/alternum,/places/270294,,,,,RL,"roman,late-antique","-30.0,640.0",Alternum,7661d294ad96d9b7c603eb2ef22b17b7
"Spann, P., R. Warner, R. Talbert, T. Elliott, S. Gillies",,2010-09-24T18:56:29Z,P.O. Spann,,,,alterum,unlocated,640,-30,2012-02-14T22:54:01Z,,,Alterum,/places/270294/alterum,/places/270294,,,,,RL,"roman,late-antique","-30.0,640.0",Alterum,42db8021d40e7125cd8b81bce9fdff1f
"Spann, P., R. Warner, R. Talbert, T. Elliott, S. Gillies",,2010-09-24T18:56:29Z,P.O. Spann,,,,asterum,unlocated,,,2012-02-14T22:54:01Z,,,Asterum,/places/270294/asterum,/places/270294,,,,,,,,Asterum,1db7ecaffe74a113cd34a30a82ef2e32
"Spann, P., R. Warner, R. Talbert, T. Elliott, S. Gillies",,2010-09-24T18:56:31Z,P.O. Spann,,,,alternia,unlocated,300,-30,2012-02-14T22:54:03Z,,,Alternia,/places/270295/alternia,/places/270295,,,,,R,roman,"-30.0,300.0",Alternia,a3e961c6602227d5f38177f8fc163200
"Spann, P., R. Warner, R. Talbert, T. Elliott, S. Gillies",,2010-09-24T18:56:33Z,P.O. Spann,0,,,althaia,unlocated,-30,-330,2019-08-29T15:46:50Z,,,Althaia,/places/270296/althaia,/places/270296,,,,,H,hellenistic-republican,"-330.0,-30.0",Althaia,ee4e41e3a84c3231c47783e7e0074a23
"Spann, P., R. Warner, R. Talbert, T. Elliott, S. Gillies",,2010-09-24T18:56:33Z,P.O. Spann,1,,,cartala,unlocated,-30,-330,2019-08-29T15:46:50Z,,,Cartala,/places/270296/cartala,/places/270296,,,,,H,hellenistic-republican,"-330.0,-30.0",Cartala,b8ac286ace5f6affdeef660c53658e16
"Spann, P., R. Warner, R. Talbert, T. Elliott, S. Gillies",,2010-09-24T18:56:34Z,P.O. Spann,,,,amtorgis,unlocated,-30,-330,2012-02-14T22:54:05Z,,,Amtorgis,/places/270297/amtorgis,/places/270297,,,,,H,hellenistic-republican,"-330.0,-30.0",Amtorgis,961a66ad5b438f1a96f4141e0e8ba0ad
"Spann, P., R. Warner, R. Talbert, T. Elliott, S. Gillies",,2010-09-24T18:56:36Z,P.O. Spann,,,,andura,unlocated,300,-30,2012-02-14T22:54:06Z,,,Andura,/places/270298/andura,/places/270298,,,,,R,roman,"-30.0,300.0",Andura,239a4b8aaf40c8ce408348f0a45b8b68
"Spann, P., R. Warner, R. Talbert, T. Elliott, S. Gillies",,2010-09-24T18:56:37Z,P.O. Spann,,,,barnakis,unlocated,300,-30,2012-02-14T22:54:06Z,,,Barnakis,/places/270301/barnakis,/places/270301,,,,,R,roman,"-30.0,300.0",Barnakis,ae7d16307e8647d81fcf346e11d4b0b7
"Spann, P., R. Warner, R. Talbert, T. Elliott, S. Gillies",,2010-09-24T18:56:39Z,P.O. Spann,,,,beleia,unlocated,300,-30,2012-02-14T22:54:07Z,,,Beleia,/places/270303/beleia,/places/270303,,,,,R,roman,"-30.0,300.0",Beleia,9620451ef6346f1711e83df15f16bda6
"Spann, P., R. Warner, R. Talbert, T. Elliott, S. Gillies",,2010-09-24T18:56:40Z,P.O. Spann,,,,bergoula,unlocated,300,-30,2012-02-14T22:54:08Z,,,Bergoula,/places/270304/bergoula,/places/270304,,,,,R,roman,"-30.0,300.0",Bergoula,f27d4945e9e3ac9ba122819f286ec4be
"Spann, P., R. Warner, R. Talbert, T. Elliott, S. Gillies",,2010-09-24T18:56:43Z,P.O. Spann,,,,bernaba,unlocated,300,-30,2012-02-14T22:54:08Z,,,Bernaba,/places/270305/bernaba,/places/270305,,,,,R,roman,"-30.0,300.0",Bernaba,ef8af343d532e7d9d500d656baea3778
"Spann, P., R. Warner, R. Talbert, S. Gillies, T. Elliott, J. Becker",,2010-09-24T18:56:45Z,P.O. Spann,1,,,bigerra,unlocated,300,-330,2019-05-03T21:50:22Z,Bigerra,la,Bigerra,/places/270306/bigerra,/places/270306,,,,,HR,"hellenistic-republican,roman","-330.0,300.0",Bigerra,ac114e618deb1188185cbb9e7e47b0dd
"Spann, P., R. Warner, R. Talbert, T. Elliott, S. Gillies",,2010-09-24T18:56:45Z,P.O. Spann,,,,begerra,unlocated,300,-330,2012-02-14T22:54:09Z,,,Begerra,/places/270306/begerra,/places/270306,,,,,HR,"hellenistic-republican,roman","-330.0,300.0",Begerra,f180ecdb6c4d3db070421af2bdcedac5
"Spann, P., R. Warner, R. Talbert, T. Elliott, S. Gillies",,2010-09-24T18:56:47Z,P.O. Spann,,,,celeret,unlocated,640,-30,2012-02-14T22:54:10Z,,,Celeret,/places/270310/celeret,/places/270310,,,,,RL,"roman,late-antique","-30.0,640.0",Celeret,3cd75b49fa45d9fb0b43ec1f809c7eef
"Spann, P., R. Warner, R. Talbert, T. Elliott, S. Gillies",,2010-09-24T18:56:47Z,P.O. Spann,,,,celeri,unlocated,640,-30,2012-02-14T22:54:10Z,,,Celeri,/places/270310/celeri,/places/270310,,,,,RL,"roman,late-antique","-30.0,640.0",Celeri,65b7acc12ef2dde4e5fb0bc87339fc22
"Spann, P., R. Warner, R. Talbert, T. Elliott, S. Gillies",,2010-09-24T18:56:49Z,P.O. Spann,,,,cusubi,unlocated,-30,-330,2012-02-14T22:54:11Z,,,Cusubi,/places/270311/cusubi,/places/270311,,,,,H,hellenistic-republican,"-330.0,-30.0",Cusubi,83b1b0f72a235f101f67f5aeefc9e04b
"Spann, P., R. Warner, R. Talbert, T. Elliott, S. Gillies",,2010-09-24T18:56:49Z,P.O. Spann,,,,casuli,unlocated,-30,-330,2012-02-14T22:54:11Z,,,Casuli,/places/270311/casuli,/places/270311,,,,,H,hellenistic-republican,"-330.0,-30.0",Casuli,1644f340c6ab1d41d9d798a6890024b6
"Spann, P., R. Warner, R. Talbert, T. Elliott, S. Gillies",,2010-09-24T18:56:50Z,P.O. Spann,,,,egelesta-1,unlocated,300,-330,2012-02-14T22:54:12Z,,,Egelesta 1,/places/270313/egelesta-1,/places/270313,,,,,HR,"hellenistic-republican,roman","-330.0,300.0",Egelesta 1,7617fa30f7be1232249f1f65b6cb14a0
"Spann, P., R. Warner, R. Talbert, T. Elliott, S. Gillies",,2010-09-24T18:56:50Z,P.O. Spann,,,,egelesta,unlocated,300,-330,2012-02-14T22:54:12Z,,,Egelesta,/places/270313/egelesta,/places/270313,,,,,HR,"hellenistic-republican,roman","-330.0,300.0",Egelesta,744918d314db6790258e91c2e9b98cbe
"Spann, P., R. Warner, R. Talbert, T. Elliott, S. Gillies",,2010-09-24T18:56:52Z,P.O. Spann,,,,egelesta-2,unlocated,300,-30,2012-02-14T22:54:12Z,,,Egelesta 2,/places/270314/egelesta-2,/places/270314,,,,,R,roman,"-30.0,300.0",Egelesta 2,6fabd799d3c9a5fddfc98bc3e504b222
"Spann, P., R. Warner, R. Talbert, T. Elliott, S. Gillies",,2010-09-24T18:56:52Z,P.O. Spann,,,,egelesta,unlocated,300,-30,2012-02-14T22:54:12Z,,,Egelesta,/places/270314/egelesta,/places/270314,,,,,R,roman,"-30.0,300.0",Egelesta,6f3e9a9afd1c0a0569a0f7ef31e28189
"Spann, P., R. Warner, R. Talbert, S. Gillies, T. Elliott, J. Becker",,2010-09-24T18:56:54Z,P.O. Spann,0,,,hannibalis,unlocated,300,-30,2015-05-01T04:24:18Z,,la,Hannibalis,/places/270316/hannibalis,/places/270316,,,,,R,roman,"-30.0,300.0",Hannibalis,54dd860f1c5d45051a292ba6f7b37ce9
"Spann, P., R. Warner, R. Talbert, T. Elliott, S. Gillies",,2010-09-24T18:56:55Z,P.O. Spann,,,,helonis,unlocated,-30,-330,2012-02-14T22:54:14Z,,,Helonis,/places/270317/helonis,/places/270317,,,,,H,hellenistic-republican,"-330.0,-30.0",Helonis,dbd3185f204565a6520921ab2f765e3b
"Spann, P., R. Warner, R. Talbert, T. Elliott, S. Gillies",,2010-09-24T18:56:56Z,P.O. Spann,,,,helo,unlocated,-30,-330,2012-02-14T22:54:14Z,,,Helo,/places/270317/helo,/places/270317,,,,,H,hellenistic-republican,"-330.0,-30.0",Helo,b57ee244e53387fa601e372f7d7bd98a
"Spann, P., R. Warner, R. Talbert, T. Elliott, S. Gillies",,2010-09-24T18:56:57Z,P.O. Spann,,,,hyops,unlocated,-330,-550,2012-02-14T22:54:15Z,,,Hyops,/places/270318/hyops,/places/270318,,,,,C,classical,"-550.0,-330.0",Hyops,8a809ed10d325dfe5242fb2c5ec011dc
"Spann, P., R. Warner, R. Talbert, T. Elliott, S. Gillies",,2010-09-24T18:56:59Z,P.O. Spann,,,,ibe,unlocated,300,-330,2012-02-14T22:54:15Z,,,Ibe,/places/270320/ibe,/places/270320,,,,,HR,"hellenistic-republican,roman","-330.0,300.0",Ibe,54f1f25b7509d87e644029befa9c080c
"Spann, P., R. Warner, R. Talbert, T. Elliott, S. Gillies",,2010-09-24T18:56:59Z,P.O. Spann,,,,ide,unlocated,300,-330,2012-02-14T22:54:15Z,,,Ide,/places/270320/ide,/places/270320,,,,,HR,"hellenistic-republican,roman","-330.0,300.0",Ide,d455deb2e06562b335e22ecf53959057
"Spann, P., R. Warner, R. Talbert, T. Elliott, S. Gillies",,2010-09-24T18:57:01Z,P.O. Spann,,,,icositani,unlocated,300,-30,2012-02-14T22:54:16Z,,,Icositani,/places/270321/icositani,/places/270321,,,,,R,roman,"-30.0,300.0",Icositani,feb209a60d1c4c57e9ee405ff16367cb
"Spann, P., R. Warner, R. Talbert, T. Elliott, S. Gillies",,2010-09-24T18:57:02Z,P.O. Spann,,,,ilarkouris,unlocated,300,-30,2012-02-14T22:54:17Z,,,Ilarkouris,/places/270323/ilarkouris,/places/270323,,,,,R,roman,"-30.0,300.0",Ilarkouris,a44ad28f41b9f93f2182b21bbb3794ea
"Spann, P., R. Warner, R. Talbert, T. Elliott, S. Gillies",,2010-09-24T18:57:04Z,P.O. Spann,,,,ileosca,unlocated,300,-30,2012-02-14T22:54:18Z,,,Ileosca,/places/270324/ileosca,/places/270324,,,,,R,roman,"-30.0,300.0",Ileosca,eb509811984e233f4c84b63e1019cd65
"Spann, P., R. Warner, R. Talbert, T. Elliott, S. Gillies",,2010-09-24T18:57:05Z,P.O. Spann,,,,ilourbida,unlocated,300,-30,2012-02-14T22:54:18Z,,,Ilourbida,/places/270325/ilourbida,/places/270325,,,,,R,roman,"-30.0,300.0",Ilourbida,6f22498a6bf7682a803d3c5f08160057
"Spann, P., R. Warner, R. Talbert, T. Elliott, S. Gillies",,2010-09-24T18:57:07Z,P.O. Spann,,,,ispinon,unlocated,300,-30,2012-02-14T22:54:19Z,,,Ispinon,/places/270326/ispinon,/places/270326,,,,,R,roman,"-30.0,300.0",Ispinon,a0b1072f6634967b9ccb478ebf14a9fd
"Spann, P., R. Warner, R. Talbert, T. Elliott, S. Gillies",,2010-09-24T18:57:08Z,P.O. Spann,,,,istonion,unlocated,300,-30,2012-02-14T22:54:20Z,,,Istonion,/places/270327/istonion,/places/270327,,,,,R,roman,"-30.0,300.0",Istonion,af16c7038549711898eef908ef308aa9
"Spann, P., R. Warner, R. Talbert, T. Elliott, S. Gillies",,2010-09-24T18:57:09Z,P.O. Spann,,,,kallikoula,unlocated,300,-30,2012-02-14T22:54:21Z,,,Kallikoula,/places/270329/kallikoula,/places/270329,,,,,R,roman,"-30.0,300.0",Kallikoula,396c8564b2408c1b334735c649e06514
"Spann, P., R. Warner, R. Talbert, T. Elliott, S. Gillies",,2010-09-24T18:57:11Z,P.O. Spann,,,,karka,unlocated,300,-30,2012-02-14T22:54:22Z,,,Karka,/places/270330/karka,/places/270330,,,,,R,roman,"-30.0,300.0",Karka,21e8c7f0d2daa2519de6b7cbfe26811f
"Spann, P., R. Warner, R. Talbert, T. Elliott, S. Gillies",,2010-09-24T18:57:13Z,P.O. Spann,,,,kerouaria,unlocated,300,-30,2012-02-14T22:54:22Z,,,Kerouaria,/places/270331/kerouaria,/places/270331,,,,,R,roman,"-30.0,300.0",Kerouaria,cc15425eb1351eab2d5f8fcc32594424
"Spann, P., R. Warner, R. Talbert, T. Elliott, S. Gillies",,2010-09-24T18:57:14Z,P.O. Spann,,,,krabrasia,unlocated,-330,-550,2012-02-14T22:54:23Z,,,Krabrasia,/places/270332/krabrasia,/places/270332,,,,,C,classical,"-550.0,-330.0",Krabrasia,07cc2e87e09affe4be57c70213d4a97a
"Spann, P., R. Warner, R. Talbert, T. Elliott, S. Gillies",,2010-09-24T18:57:16Z,P.O. Spann,,,,laccuris,unlocated,300,-30,2012-02-14T22:54:24Z,,,Laccuris,/places/270334/laccuris,/places/270334,,,,,R,roman,"-30.0,300.0",Laccuris,945670981b7a5010aa579d3df92e637e
"Spann, P., R. Warner, R. Talbert, T. Elliott, S. Gillies",,2010-09-24T18:57:17Z,P.O. Spann,,,,lassira,unlocated,300,-330,2012-02-14T22:54:24Z,,,Lassira,/places/270335/lassira,/places/270335,,,,,HR,"hellenistic-republican,roman","-330.0,300.0",Lassira,cad95fc5fa3767d443cdf36b2c014b33
"Spann, P., R. Warner, R. Talbert, T. Elliott, S. Gillies",,2010-09-24T18:57:18Z,P.O. Spann,,,,lersensis-res-publicae,unlocated,300,-330,2012-02-14T22:54:24Z,,,Lersensis Res Publicae,/places/270335/lersensis-res-publicae,/places/270335,,,,,HR,"hellenistic-republican,roman","-330.0,300.0",Lersensis Res Publicae,53daaf81e67dfe56c24b00d1294cd7f9
"Spann, P., R. Warner, R. Talbert, T. Elliott, S. Gillies",,2010-09-24T18:57:21Z,P.O. Spann,,,,lauro,unlocated,300,-330,2012-02-14T22:54:25Z,,,Lauro,/places/270336/lauro,/places/270336,,,,,HR,"hellenistic-republican,roman","-330.0,300.0",Lauro,0bcfeeed4765fb8ed7b9504c9dfb9b4d
"Spann, P., R. Warner, R. Talbert, T. Elliott, S. Gillies",,2010-09-24T18:57:22Z,P.O. Spann,,,,laxta,unlocated,300,-30,2012-02-14T22:54:26Z,,,Laxta,/places/270337/laxta,/places/270337,,,,,R,roman,"-30.0,300.0",Laxta,39338b8cb296379aa75939147723b614
"Spann, P., R. Warner, R. Talbert, T. Elliott, S. Gillies",,2010-09-24T18:57:24Z,P.O. Spann,,,,libana,unlocated,300,-30,2012-02-14T22:54:28Z,,,Libana,/places/270339/libana,/places/270339,,,,,R,roman,"-30.0,300.0",Libana,0f58f90d3f67cfce08d90244686dd4fe
"Spann, P., R. Warner, R. Talbert, T. Elliott, S. Gillies",,2010-09-24T18:57:25Z,P.O. Spann,,,,lobeton,unlocated,300,-30,2012-02-14T22:54:29Z,,,Lobeton,/places/270340/lobeton,/places/270340,,,,,R,roman,"-30.0,300.0",Lobeton,01b53ac3fce515a57c8361e17e3a6abe
"Jesús Redondo, M., J. Becker","-1.4442792, 40.4072825, -1.4442792, 40.4072825",2016-12-07T13:03:43Z,mjredondo,2,An ancient and medieval Spanish village located in the southwest of the province of Teruel. It belonged to the kingdom of Alfonso X (XIII century). It is located near the ancient Roman city of Lobetum. Its modern name is Albarracín.,"{""type"": ""Point"", ""coordinates"": [-1.4442792, 40.4072825]}",aluarrazin,precise,1453,640,2018-02-01T04:28:26Z,Aluarrazin,es,Aluarrazin,/places/270340/aluarrazin,/places/270340,40.4072825,"40.4072825,-1.4442792",-1.4442792,,M,mediaeval-byzantine,"640.0,1453.0",Aluarrazin,44a5962d7a1443db887b882529ff81e5
"Jesús Redondo, M., J. Becker","-1.4442792, 40.4072825, -1.4442792, 40.4072825",2016-12-07T13:06:50Z,mjredondo,4,,"{""type"": ""Point"", ""coordinates"": [-1.4442792, 40.4072825]}",albarracan,precise,2100,1700,2017-05-03T18:53:36Z,Albarracín,es,Albarracin,/places/270340/albarracan,/places/270340,40.4072825,"40.4072825,-1.4442792",-1.4442792,,M,modern,"1700.0,2100.0",Albarracin,e740e2c80e23486a98ac8c930c1f7944
"Spann, P., R. Warner, R. Talbert, T. Elliott, S. Gillies",,2010-09-24T18:57:27Z,P.O. Spann,,,,loupparia,unlocated,300,-30,2012-02-14T22:54:29Z,,,Loupparia,/places/270341/loupparia,/places/270341,,,,,R,roman,"-30.0,300.0",Loupparia,3592167ced8f26bc22021b6541d8947b
"Spann, P., R. Warner, R. Talbert, T. Elliott, S. Gillies",,2010-09-24T18:57:28Z,P.O. Spann,,,,lyco,unlocated,-30,-330,2012-02-14T22:54:30Z,,,Lyco,/places/270342/lyco,/places/270342,,,,,H,hellenistic-republican,"-330.0,-30.0",Lyco,0813641b7ba95a3ed18562fb0b81245d
"Spann, P., R. Warner, R. Talbert, T. Elliott, S. Gillies",,2010-09-24T18:57:30Z,P.O. Spann,,,,martium-ucia,unlocated,300,-30,2012-02-14T22:54:30Z,,,Martium Ucia,/places/270344/martium-ucia,/places/270344,,,,,R,roman,"-30.0,300.0",Martium Ucia,621296c6793aa99597ef5be076ffabbd
"Spann, P., R. Warner, R. Talbert, T. Elliott, S. Gillies",,2010-09-24T18:57:30Z,P.O. Spann,,,,ucia,unlocated,300,-30,2012-02-14T22:54:30Z,,,Ucia,/places/270344/ucia,/places/270344,,,,,R,roman,"-30.0,300.0",Ucia,1b2618276f3be8c7c848d2095d5166ae
"Spann, P., R. Warner, R. Talbert, T. Elliott, S. Gillies",,2010-09-24T18:57:32Z,P.O. Spann,,,,mastia,unlocated,-30,-550,2012-02-14T22:54:31Z,,,Mastia,/places/270345/mastia,/places/270345,,,,,CH,"classical,hellenistic-republican","-550.0,-30.0",Mastia,8ce3901f47edc43cc049dfa15c06bf77
"Spann, P., R. Warner, R. Talbert, T. Elliott, S. Gillies",,2010-09-24T18:57:32Z,P.O. Spann,,,,massia,unlocated,-30,-550,2012-02-14T22:54:31Z,,,Massia,/places/270345/massia,/places/270345,,,,,CH,"classical,hellenistic-republican","-550.0,-30.0",Massia,bb7e94368c09b0cc18b0b8e040558b0d
